lab02/lab2/simulation/qsim/lab2.msim.vcd
$comment
	File created using the following command:
		vcd file lab2.msim.vcd -direction
$end
$date
	Sun Mar 11 20:28:56 2018
$end
$version
	ModelSim Version 10.5b
$end
$timescale
	1ps
$end

$scope module lab2_vlg_vec_tst $end
$var reg 1 ! A $end
$var reg 1 " B $end
$var reg 1 # C $end
$var reg 1 $ D $end
$var reg 1 % E $end
$var wire 1 & F $end

$scope module i1 $end
$var wire 1 ' gnd $end
$var wire 1 ( vcc $end
$var wire 1 ) unknown $end
$var tri1 1 * devclrn $end
$var tri1 1 + devpor $end
$var tri1 1 , devoe $end
$var wire 1 - ~QUARTUS_CREATED_GND~I_combout $end
$var wire 1 . A~input_o $end
$var wire 1 / C~input_o $end
$var wire 1 0 E~input_o $end
$var wire 1 1 D~input_o $end
$var wire 1 2 B~input_o $end
$var wire 1 3 inst16~0_combout $end
$upscope $end
$upscope $end
$enddefinitions $end
#0
$dumpvars
0!
0"
0#
0$
0%
1&
0'
1(
x)
1*
1+
1,
0-
0.
0/
00
01
02
13
$end
#25000
1%
10
03
0&
#50000
1$
0%
11
00
13
1&
#75000
1%
10
03
0&
#100000
1#
0$
0%
1/
01
00
#125000
1%
10
13
1&
#150000
1$
0%
11
00
03
0&
#175000
1%
10
#200000
1"
0#
0$
0%
12
0/
01
00
13
1&
#225000
1%
10
03
0&
#250000
1$
0%
11
00
#275000
1%
10
#300000
1#
0$
0%
1/
01
00
#325000
1%
10
13
1&
#350000
1$
0%
11
00
03
0&
#375000
1%
10
13
1&
#400000
1!
0"
0#
0$
0%
1.
02
0/
01
00
03
0&
#425000
1%
10
#450000
1$
0%
11
00
13
1&
#475000
1%
10
03
0&
#500000
1#
0$
0%
1/
01
00
#525000
1%
10
13
1&
#550000
1$
0%
11
00
03
0&
#575000
1%
10
#600000
1"
0#
0$
0%
12
0/
01
00
13
1&
#625000
1%
10
03
0&
#650000
1$
0%
11
00
#675000
1%
10
#700000
1#
0$
0%
1/
01
00
#730000
1%
10
13
1&
#750000
1$
0%
11
00
03
0&
#775000
1%
10
13
1&
