Projeto/ItemCounter (copy)/simulation/qsim/stock_component.msim.vcd
$comment
	File created using the following command:
		vcd file stock_component.msim.vcd -direction
$end
$date
	Tue Jun 12 22:22:15 2018
$end
$version
	ModelSim Version 10.5b
$end
$timescale
	1ps
$end

$scope module stock_component_vhd_vec_tst $end
$var wire 1 ! clock $end
$var wire 1 " input_value [7] $end
$var wire 1 # input_value [6] $end
$var wire 1 $ input_value [5] $end
$var wire 1 % input_value [4] $end
$var wire 1 & input_value [3] $end
$var wire 1 ' input_value [2] $end
$var wire 1 ( input_value [1] $end
$var wire 1 ) input_value [0] $end
$var wire 1 * load $end
$var wire 1 + positive_signal $end
$var wire 1 , reset $end
$var wire 1 - total_value [7] $end
$var wire 1 . total_value [6] $end
$var wire 1 / total_value [5] $end
$var wire 1 0 total_value [4] $end
$var wire 1 1 total_value [3] $end
$var wire 1 2 total_value [2] $end
$var wire 1 3 total_value [1] $end
$var wire 1 4 total_value [0] $end

$scope module i1 $end
$var wire 1 5 gnd $end
$var wire 1 6 vcc $end
$var wire 1 7 unknown $end
$var wire 1 8 devoe $end
$var wire 1 9 devclrn $end
$var wire 1 : devpor $end
$var wire 1 ; ww_devoe $end
$var wire 1 < ww_devclrn $end
$var wire 1 = ww_devpor $end
$var wire 1 > ww_clock $end
$var wire 1 ? ww_reset $end
$var wire 1 @ ww_load $end
$var wire 1 A ww_positive_signal $end
$var wire 1 B ww_input_value [7] $end
$var wire 1 C ww_input_value [6] $end
$var wire 1 D ww_input_value [5] $end
$var wire 1 E ww_input_value [4] $end
$var wire 1 F ww_input_value [3] $end
$var wire 1 G ww_input_value [2] $end
$var wire 1 H ww_input_value [1] $end
$var wire 1 I ww_input_value [0] $end
$var wire 1 J ww_total_value [7] $end
$var wire 1 K ww_total_value [6] $end
$var wire 1 L ww_total_value [5] $end
$var wire 1 M ww_total_value [4] $end
$var wire 1 N ww_total_value [3] $end
$var wire 1 O ww_total_value [2] $end
$var wire 1 P ww_total_value [1] $end
$var wire 1 Q ww_total_value [0] $end
$var wire 1 R \~QUARTUS_CREATED_GND~I_combout\ $end
$var wire 1 S \reset~input_o\ $end
$var wire 1 T \input_value[0]~input_o\ $end
$var wire 1 U \total[0]~1_combout\ $end
$var wire 1 V \clock~input_o\ $end
$var wire 1 W \clock~inputCLKENA0_outclk\ $end
$var wire 1 X \positive_signal~input_o\ $end
$var wire 1 Y \Add0~34_cout\ $end
$var wire 1 Z \Add0~1_sumout\ $end
$var wire 1 [ \total[0]~3_combout\ $end
$var wire 1 \ \load~input_o\ $end
$var wire 1 ] \total[0]~_emulated_q\ $end
$var wire 1 ^ \total[0]~2_combout\ $end
$var wire 1 _ \input_value[1]~input_o\ $end
$var wire 1 ` \total[1]~5_combout\ $end
$var wire 1 a \Add0~2\ $end
$var wire 1 b \Add0~5_sumout\ $end
$var wire 1 c \total[1]~7_combout\ $end
$var wire 1 d \total[1]~_emulated_q\ $end
$var wire 1 e \total[1]~6_combout\ $end
$var wire 1 f \input_value[2]~input_o\ $end
$var wire 1 g \total[2]~9_combout\ $end
$var wire 1 h \Add0~6\ $end
$var wire 1 i \Add0~9_sumout\ $end
$var wire 1 j \total[2]~11_combout\ $end
$var wire 1 k \total[2]~_emulated_q\ $end
$var wire 1 l \total[2]~10_combout\ $end
$var wire 1 m \input_value[3]~input_o\ $end
$var wire 1 n \total[3]~13_combout\ $end
$var wire 1 o \Add0~10\ $end
$var wire 1 p \Add0~13_sumout\ $end
$var wire 1 q \total[3]~15_combout\ $end
$var wire 1 r \total[3]~_emulated_q\ $end
$var wire 1 s \total[3]~14_combout\ $end
$var wire 1 t \input_value[4]~input_o\ $end
$var wire 1 u \total[4]~17_combout\ $end
$var wire 1 v \Add0~14\ $end
$var wire 1 w \Add0~17_sumout\ $end
$var wire 1 x \total[4]~19_combout\ $end
$var wire 1 y \total[4]~_emulated_q\ $end
$var wire 1 z \total[4]~18_combout\ $end
$var wire 1 { \input_value[5]~input_o\ $end
$var wire 1 | \total[5]~21_combout\ $end
$var wire 1 } \Add0~18\ $end
$var wire 1 ~ \Add0~21_sumout\ $end
$var wire 1 !! \total[5]~23_combout\ $end
$var wire 1 "! \total[5]~_emulated_q\ $end
$var wire 1 #! \total[5]~22_combout\ $end
$var wire 1 $! \input_value[6]~input_o\ $end
$var wire 1 %! \total[6]~25_combout\ $end
$var wire 1 &! \Add0~22\ $end
$var wire 1 '! \Add0~25_sumout\ $end
$var wire 1 (! \total[6]~27_combout\ $end
$var wire 1 )! \total[6]~_emulated_q\ $end
$var wire 1 *! \total[6]~26_combout\ $end
$var wire 1 +! \input_value[7]~input_o\ $end
$var wire 1 ,! \total[7]~29_combout\ $end
$var wire 1 -! \Add0~26\ $end
$var wire 1 .! \Add0~29_sumout\ $end
$var wire 1 /! \total[7]~31_combout\ $end
$var wire 1 0! \total[7]~_emulated_q\ $end
$var wire 1 1! \total[7]~30_combout\ $end
$var wire 1 2! \ALT_INV_total[3]~_emulated_q\ $end
$var wire 1 3! \ALT_INV_total[2]~10_combout\ $end
$var wire 1 4! \ALT_INV_total[2]~_emulated_q\ $end
$var wire 1 5! \ALT_INV_total[1]~6_combout\ $end
$var wire 1 6! \ALT_INV_total[1]~_emulated_q\ $end
$var wire 1 7! \ALT_INV_total[0]~2_combout\ $end
$var wire 1 8! \ALT_INV_total[0]~_emulated_q\ $end
$var wire 1 9! \ALT_INV_Add0~29_sumout\ $end
$var wire 1 :! \ALT_INV_Add0~25_sumout\ $end
$var wire 1 ;! \ALT_INV_Add0~21_sumout\ $end
$var wire 1 <! \ALT_INV_Add0~17_sumout\ $end
$var wire 1 =! \ALT_INV_Add0~13_sumout\ $end
$var wire 1 >! \ALT_INV_Add0~9_sumout\ $end
$var wire 1 ?! \ALT_INV_Add0~5_sumout\ $end
$var wire 1 @! \ALT_INV_Add0~1_sumout\ $end
$var wire 1 A! \ALT_INV_positive_signal~input_o\ $end
$var wire 1 B! \ALT_INV_input_value[7]~input_o\ $end
$var wire 1 C! \ALT_INV_input_value[6]~input_o\ $end
$var wire 1 D! \ALT_INV_input_value[5]~input_o\ $end
$var wire 1 E! \ALT_INV_input_value[4]~input_o\ $end
$var wire 1 F! \ALT_INV_input_value[3]~input_o\ $end
$var wire 1 G! \ALT_INV_input_value[2]~input_o\ $end
$var wire 1 H! \ALT_INV_input_value[1]~input_o\ $end
$var wire 1 I! \ALT_INV_input_value[0]~input_o\ $end
$var wire 1 J! \ALT_INV_reset~input_o\ $end
$var wire 1 K! \ALT_INV_total[7]~29_combout\ $end
$var wire 1 L! \ALT_INV_total[6]~25_combout\ $end
$var wire 1 M! \ALT_INV_total[5]~21_combout\ $end
$var wire 1 N! \ALT_INV_total[4]~17_combout\ $end
$var wire 1 O! \ALT_INV_total[3]~13_combout\ $end
$var wire 1 P! \ALT_INV_total[2]~9_combout\ $end
$var wire 1 Q! \ALT_INV_total[1]~5_combout\ $end
$var wire 1 R! \ALT_INV_total[0]~1_combout\ $end
$var wire 1 S! \ALT_INV_total[7]~30_combout\ $end
$var wire 1 T! \ALT_INV_total[7]~_emulated_q\ $end
$var wire 1 U! \ALT_INV_total[6]~26_combout\ $end
$var wire 1 V! \ALT_INV_total[6]~_emulated_q\ $end
$var wire 1 W! \ALT_INV_total[5]~22_combout\ $end
$var wire 1 X! \ALT_INV_total[5]~_emulated_q\ $end
$var wire 1 Y! \ALT_INV_total[4]~18_combout\ $end
$var wire 1 Z! \ALT_INV_total[4]~_emulated_q\ $end
$var wire 1 [! \ALT_INV_total[3]~14_combout\ $end
$upscope $end
$upscope $end
$enddefinitions $end
#0
$dumpvars
0!
0*
0+
0,
05
16
x7
18
19
1:
1;
1<
1=
0>
0?
0@
0A
xR
0S
0T
xU
0V
0W
0X
1Y
xZ
x[
0\
0]
x^
0_
x`
1a
xb
xc
0d
xe
0f
xg
1h
xi
xj
0k
xl
0m
xn
1o
xp
xq
0r
xs
0t
xu
1v
xw
xx
0y
xz
0{
x|
1}
x~
x!!
0"!
x#!
0$!
x%!
1&!
x'!
x(!
0)!
x*!
0+!
x,!
1-!
x.!
x/!
00!
x1!
12!
x3!
14!
x5!
16!
x7!
18!
x9!
x:!
x;!
x<!
x=!
x>!
x?!
x@!
1A!
1B!
1C!
1D!
1E!
1F!
1G!
1H!
1I!
1J!
xK!
xL!
xM!
xN!
xO!
xP!
xQ!
xR!
xS!
1T!
xU!
1V!
xW!
1X!
xY!
1Z!
x[!
0"
0#
0$
0%
0&
0'
0(
0)
0B
0C
0D
0E
0F
0G
0H
0I
xJ
xK
xL
xM
xN
xO
xP
xQ
x-
x.
x/
x0
x1
x2
x3
x4
$end
#12000
1)
1I
1T
0I!
xa
xh
xo
xv
x}
x&!
x-!
#20000
1,
1?
1S
0J!
1U
1^
0`
0e
0g
0l
0n
0s
0u
0z
0|
0#!
0%!
0*!
0,!
01!
1S!
1K!
1U!
1L!
1W!
1M!
1Y!
1N!
1[!
1O!
13!
1P!
15!
1Q!
07!
0R!
0Z
1a
1@!
0J
0K
0L
0M
0N
0O
0P
1Q
0b
1h
1[
1?!
14
03
02
01
00
0/
0.
0-
0i
1o
0c
1>!
0p
1v
0j
1=!
0w
1}
0q
1<!
0~
1&!
0x
1;!
0'!
1-!
0!!
1:!
0.!
0(!
19!
0/!
#24000
0)
1(
0I
1H
1_
0T
1I!
0H!
1`
1b
0h
1e
0U
1Z
0^
17!
0@!
1R!
05!
0?!
0Q!
1i
0o
0b
1h
0Z
0>!
1p
0v
1@!
1?!
0Q
1P
1j
0i
1o
0=!
1c
0[
1w
0}
1>!
04
13
1q
0p
1v
0<!
0j
1~
0&!
1=!
1x
0w
1}
0;!
0q
1'!
0-!
1<!
1!!
0~
1&!
0:!
0x
1.!
1;!
1(!
0'!
1-!
09!
0!!
1:!
1/!
0.!
0(!
19!
0/!
#25000
1!
1>
1V
1W
#30000
0,
0?
0S
1J!
#36000
1)
1I
1T
0I!
1Z
0a
0@!
1b
0h
1[
0?!
1i
0o
0c
0>!
1p
0v
1j
0=!
1w
0}
1q
0<!
1~
0&!
1x
0;!
1'!
0-!
1!!
0:!
1.!
1(!
09!
1/!
#48000
0)
0(
1'
0I
0H
1G
1f
0_
0T
1I!
1H!
0G!
0i
0b
1h
0Z
1a
1@!
1?!
1>!
1b
1i
0j
1c
0[
0>!
0?!
0c
1j
#50000
0!
0>
0V
0W
#60000
1)
1I
1T
0I!
1Z
0a
0@!
0b
1[
1?!
1c
#70000
1+
1*
1A
1@
1\
1X
0A!
0Y
0Z
1a
1b
0h
0i
1o
0p
0w
0~
0'!
0.!
19!
1:!
1;!
1<!
1=!
1>!
0?!
1@!
1p
1i
0o
0b
1h
1Z
0a
0[
0c
0j
0q
0x
0!!
0(!
0/!
0@!
1?!
0>!
0=!
1b
0h
0i
1o
0p
1q
1j
1c
1[
1=!
1>!
0?!
1p
1i
0o
0c
0j
0q
0>!
0=!
0p
1q
1j
1=!
0q
#72000
0)
1(
0I
1H
1_
0T
1I!
0H!
0b
1h
0Z
1@!
1?!
0i
1o
1c
0[
1>!
1p
0j
0=!
1q
#75000
1!
1>
1V
1W
1d
1r
02!
06!
0e
1s
0[!
15!
1b
0h
0p
1v
1=!
0?!
1N
0P
1w
1i
0o
0c
0q
0>!
0<!
03
11
1p
0v
1x
1j
0=!
0w
1q
1<!
0x
#80000
0+
0*
0A
0@
0\
0X
1A!
1Y
1Z
0b
0i
0p
1v
1w
1~
1'!
1.!
09!
0:!
0;!
0<!
1=!
1>!
1?!
0@!
0w
1}
0Z
1a
1[
1c
0j
0q
1x
1!!
1(!
1/!
1@!
1<!
1b
0~
1&!
0x
0[
1;!
0?!
0'!
1-!
0c
0!!
1:!
0.!
0(!
19!
0/!
#84000
1)
1I
1T
0I!
1Z
0a
0@!
0b
1[
1?!
1c
#96000
0)
0(
0'
1&
0I
0H
0G
1F
1m
0f
0_
0T
1I!
1H!
1G!
0F!
1p
0v
1i
1b
0Z
1a
1@!
0?!
0>!
0=!
0b
1h
1w
0}
1q
1j
0c
0[
0<!
1?!
1~
0&!
0i
1o
1c
1x
1>!
0;!
0p
1v
1'!
0-!
1!!
0j
0:!
1=!
1.!
0w
1}
0q
1(!
1<!
09!
0~
1&!
1/!
0x
1;!
0'!
1-!
0!!
1:!
0.!
0(!
19!
0/!
#100000
0!
0>
0V
0W
#108000
1)
1I
1T
0I!
1Z
0a
0@!
1b
0h
1[
0?!
1i
0o
0c
0>!
1p
0v
1j
0=!
1w
0}
1q
0<!
1~
0&!
1x
0;!
1'!
0-!
1!!
0:!
1.!
1(!
09!
1/!
#120000
0&
1*
0F
1@
1\
0m
1F!
0p
1v
1=!
0w
1}
0q
1<!
0~
1&!
0x
1;!
0'!
1-!
0!!
1:!
0.!
0(!
19!
0/!
#125000
1!
1>
1V
1W
1]
0d
1k
0r
12!
04!
16!
08!
1^
1e
1l
0s
1[!
03!
05!
07!
0Z
1a
0b
1h
0i
1o
1p
0v
0=!
1>!
1?!
1@!
0N
1O
1P
1Q
1w
0}
0p
1v
1i
1b
0[
1c
0j
1q
0?!
0>!
1=!
0<!
14
13
12
01
0w
1}
1~
0&!
1x
0q
1j
0c
0;!
1<!
1'!
0-!
0~
1&!
0x
1!!
1;!
0:!
0'!
1-!
1.!
1(!
0!!
09!
1:!
0.!
0(!
1/!
19!
0/!
#130000
0*
0@
0\
#132000
1&
1(
1H
1F
1m
1_
0H!
0F!
1p
0v
0b
1?!
0=!
1w
0}
1q
1c
0<!
1~
0&!
1x
0;!
1'!
0-!
1!!
0:!
1.!
1(!
09!
1/!
#144000
0(
0)
1'
0I
0H
1G
1f
0_
0T
1I!
1H!
0G!
0i
1b
1Z
0@!
0?!
1>!
0j
0c
1[
#150000
0!
0>
0V
0W
#156000
1)
1I
1T
0I!
0Z
1@!
0[
#160000
1,
1?
1S
0J!
1U
0]
0`
0e
1g
0k
1n
1s
0[!
0O!
14!
0P!
15!
1Q!
18!
0R!
1[
1c
0b
1j
0q
0p
1v
1=!
1?!
1N
0P
0w
1}
0c
1q
1<!
03
11
0~
1&!
0x
1;!
0'!
1-!
0!!
1:!
0.!
0(!
19!
0/!
#168000
0)
1(
0I
1H
1_
0T
1I!
0H!
1`
1b
0h
1e
0U
1Z
0^
17!
0@!
1R!
05!
0?!
0Q!
1i
0o
0b
1h
0Z
0>!
1p
0v
1@!
1?!
0Q
1P
0j
0i
1o
0=!
1c
0[
1w
0}
1>!
04
13
0q
0p
1v
0<!
1j
1~
0&!
1=!
1x
0w
1}
0;!
1q
1'!
0-!
1<!
1!!
0~
1&!
0:!
0x
1.!
1;!
1(!
0'!
1-!
09!
0!!
1:!
1/!
0.!
0(!
19!
0/!
#170000
0,
0?
0S
1J!
#175000
1!
1>
1V
1W
#180000
1)
1I
1T
0I!
1Z
0a
0@!
1b
0h
1[
0?!
1i
0o
0c
0>!
1p
0v
0j
0=!
1w
0}
0q
0<!
1~
0&!
1x
0;!
1'!
0-!
1!!
0:!
1.!
1(!
09!
1/!
#192000
0)
0(
0'
0&
1%
0I
0H
0G
0F
1E
1t
0m
0f
0_
0T
1I!
1H!
1G!
1F!
0E!
0w
0p
1v
0i
1o
0b
1h
0Z
1a
1@!
1?!
1>!
1=!
1<!
1b
1i
1p
1w
0x
1q
1j
1c
0[
0<!
0=!
0>!
0?!
0c
0j
0q
1x
#200000
0!
0>
0V
0W
#204000
1)
1I
1T
0I!
1Z
0a
0@!
0b
1[
1?!
1c
#216000
0)
1&
0%
1"
1#
0I
1F
0E
1C
1B
1+!
1$!
0t
1m
0T
1I!
0F!
1E!
0C!
0B!
0.!
0'!
0w
1}
0p
0Z
1a
1@!
1=!
1<!
1:!
19!
1b
0~
1&!
0/!
0(!
0x
1q
0[
1;!
0?!
1'!
0c
0!!
0:!
1(!
#220000
1*
1+
1@
1A
1X
1\
0A!
0Y
1Z
0a
0b
0i
1p
1w
0}
1~
0&!
0'!
1-!
1.!
09!
1:!
0;!
0<!
0=!
1>!
1?!
0@!
0.!
1'!
0-!
0~
1b
0h
0Z
1[
1c
1j
0q
1x
1!!
0(!
1/!
1@!
0?!
1;!
0:!
19!
1i
0o
1.!
0/!
1(!
0!!
0c
0[
09!
0>!
0p
0j
1/!
1=!
1q
#225000
1!
1>
1V
1W
1r
1y
1)!
10!
0T!
0V!
0Z!
02!
0s
1z
1*!
11!
0S!
0U!
0Y!
1[!
1p
0v
0w
1}
0'!
1-!
0.!
19!
1:!
1<!
0=!
1J
1K
1M
0N
1.!
1~
1w
0}
0q
0x
0(!
0/!
0<!
0;!
09!
01
10
1.
1-
0~
1/!
1!!
1x
1;!
0!!
#228000
1)
0&
1%
0"
0#
1(
1I
1H
0F
1E
0C
0B
0+!
0$!
1t
0m
1_
1T
0I!
0H!
1F!
0E!
1C!
1B!
0.!
1'!
0-!
0w
1}
0p
0b
1h
1Z
0@!
1?!
1=!
1<!
0:!
19!
0i
1o
1~
1.!
0/!
1(!
0x
1q
1c
1[
09!
0;!
1>!
1p
1j
1!!
1/!
0=!
0q
#230000
0*
0+
0@
0A
0X
0\
1A!
1Y
0Z
1b
0h
1i
0p
1v
1w
0}
0~
1&!
0'!
1-!
0.!
19!
1:!
1;!
0<!
1=!
0>!
0?!
1@!
1.!
1'!
1~
0&!
0w
1}
0i
1Z
0[
0c
0j
1q
1x
0!!
0(!
0/!
0@!
1>!
1<!
0;!
0:!
09!
0~
1&!
0'!
1/!
1(!
1!!
0x
1j
1[
1:!
1;!
1'!
0!!
0(!
0:!
1(!
#240000
0)
0(
1'
0I
0H
1G
1f
0_
0T
1I!
1H!
0G!
1i
0o
0b
1h
0Z
1a
1@!
1?!
0>!
1b
0i
1o
1p
0v
0j
1c
0[
0=!
1>!
0?!
1w
0}
0p
1v
0c
1j
0q
1=!
0<!
0w
1}
1~
0&!
1x
1q
0;!
1<!
0'!
0~
1&!
0x
1!!
1;!
1:!
1'!
0(!
0!!
0:!
1(!
#250000
0!
0>
0V
0W
#252000
1)
1I
1T
0I!
1Z
0a
0@!
0b
1[
1?!
1c
#264000
0)
0%
1#
1$
0I
0E
1D
1C
1$!
1{
0t
0T
1I!
1E!
0D!
0C!
0'!
1~
0&!
1w
0Z
1a
1@!
0<!
0;!
1:!
1b
1'!
0-!
0(!
1!!
1x
0[
0:!
0?!
0.!
0c
1(!
19!
0/!
#270000
1*
1+
1@
1A
1X
1\
0A!
0Y
1Z
0a
0b
1i
1p
0v
0w
0~
1&!
0'!
1-!
1.!
09!
1:!
1;!
1<!
0=!
0>!
1?!
0@!
0.!
1'!
1w
0}
1b
0h
0Z
1[
1c
0j
0q
0x
0!!
0(!
1/!
1@!
0?!
0<!
0:!
19!
0i
1~
0&!
0/!
1(!
1x
0c
0[
0;!
1>!
0'!
1j
1!!
1:!
0(!
#275000
1!
1>
1V
1W
1k
0r
1"!
0)!
00!
1T!
1V!
0X!
12!
04!
0l
1s
1#!
0*!
01!
1S!
1U!
0W!
0[!
13!
1i
0o
0p
1v
0~
1&!
1'!
0-!
1.!
09!
0:!
1;!
1=!
0>!
0J
0K
1L
1N
0O
0.!
0'!
1-!
0w
1}
1p
0v
0j
1q
0!!
1(!
1/!
0=!
1<!
1:!
19!
02
11
1/
0.
0-
1w
0}
1~
1.!
0/!
0(!
0x
0q
09!
0;!
0<!
0~
1x
1!!
1/!
1;!
0!!
#276000
1)
1%
0#
0$
1(
1I
1H
1E
0D
0C
0$!
0{
1t
1_
1T
0I!
0H!
0E!
1D!
1C!
1'!
0-!
1~
0&!
0w
1}
0b
1h
1Z
0@!
1?!
1<!
0;!
0:!
0i
1o
0~
1&!
0'!
0.!
1(!
1!!
0x
1c
1[
19!
1:!
1;!
1>!
1'!
0p
1v
1j
0!!
0(!
0/!
1=!
0:!
1w
1(!
1q
0<!
1x
#280000
0*
0+
0@
0A
0X
0\
1A!
1Y
0Z
1b
0h
1i
0o
1p
0w
1~
0'!
1-!
1.!
09!
1:!
0;!
1<!
0=!
0>!
0?!
1@!
0.!
0p
0i
1Z
0[
0c
0j
0q
0x
1!!
0(!
1/!
0@!
1>!
1=!
19!
0/!
1q
1j
1[
#288000
0)
0(
0'
1&
0I
0H
0G
1F
1m
0f
0_
0T
1I!
1H!
1G!
0F!
1p
0v
1i
0b
1h
0Z
1a
1@!
1?!
0>!
0=!
1b
0i
1o
1w
0}
0q
0j
1c
0[
0<!
1>!
0?!
0~
0p
1v
0c
1j
1x
1=!
1;!
0w
1}
0!!
1q
1<!
1~
0x
0;!
1!!
#300000
1)
0!
1I
0>
0V
1T
0W
0I!
1Z
0a
0@!
0b
1[
1?!
1c
#312000
0)
1(
0I
1H
1_
0T
1I!
0H!
1b
0h
0Z
1a
1@!
0?!
0b
1h
1i
0o
0c
0[
0>!
1?!
1p
0v
0i
1o
1c
0j
1>!
0=!
0p
1v
1w
0}
0q
1j
0<!
1=!
0~
0w
1}
1q
1x
1<!
1;!
1~
0!!
0x
0;!
1!!
#324000
1)
1I
1T
0I!
1Z
0a
0@!
1b
0h
1[
0?!
1i
0o
0c
0>!
1p
0v
0j
0=!
1w
0}
0q
0<!
0~
1x
1;!
0!!
#325000
1!
1>
1V
1W
#336000
0)
0(
1'
0I
0H
1G
1f
0_
0T
1I!
1H!
0G!
0i
0b
1h
0Z
1a
1@!
1?!
1>!
1b
1i
1j
1c
0[
0>!
0?!
0c
0j
#348000
1)
1I
1T
0I!
1Z
0a
0@!
0b
1[
1?!
1c
#350000
0!
0>
0V
0W
#360000
0)
1(
0I
1H
1_
0T
1I!
0H!
1b
0h
0Z
1a
1@!
0?!
0b
1h
0i
0c
0[
1>!
1?!
1i
1c
1j
0>!
0j
#372000
1)
1I
1T
0I!
1Z
0a
0@!
1b
0h
1[
0?!
0i
0c
1>!
1j
#375000
1!
1>
1V
1W
#384000
0)
0(
0'
0&
0%
1$
0I
0H
0G
0F
0E
1D
1{
0t
0m
0f
0_
0T
1I!
1H!
1G!
1F!
1E!
0D!
1~
0&!
0w
1}
0p
1v
1i
0b
1h
0Z
1a
1@!
1?!
0>!
1=!
1<!
0;!
1b
0i
1o
1w
0~
1&!
1'!
0-!
1!!
0x
1q
0j
1c
0[
0:!
1;!
0<!
1>!
0?!
1.!
0'!
1-!
1p
0c
1j
1x
0!!
1(!
0=!
1:!
09!
0.!
1/!
0(!
0q
19!
0/!
#396000
1)
1I
1T
0I!
1Z
0a
0@!
0b
1[
1?!
1c
#400000
0!
0>
0V
0W
#408000
0)
1(
0I
1H
1_
0T
1I!
0H!
1b
0h
0Z
1a
1@!
0?!
0b
1h
1i
0o
0c
0[
0>!
1?!
0p
0i
1o
1c
0j
1>!
1=!
1p
1q
1j
0=!
0q
#420000
1)
1I
1T
0I!
1Z
0a
0@!
1b
0h
1[
0?!
1i
0o
0c
0>!
0p
0j
1=!
1q
#425000
1!
1>
1V
1W
#432000
0)
0(
1'
0I
0H
1G
1f
0_
0T
1I!
1H!
0G!
0i
0b
1h
0Z
1a
1@!
1?!
1>!
1b
1i
1j
1c
0[
0>!
0?!
0c
0j
#444000
1)
1I
1T
0I!
1Z
0a
0@!
0b
1[
1?!
1c
#450000
0!
0>
0V
0W
#456000
0)
1(
0I
1H
1_
0T
1I!
0H!
1b
0h
0Z
1a
1@!
0?!
0b
1h
0i
0c
0[
1>!
1?!
1i
1c
1j
0>!
0j
#468000
1)
1I
1T
0I!
1Z
0a
0@!
1b
0h
1[
0?!
0i
0c
1>!
1j
#475000
1!
1>
1V
1W
#480000
0)
0(
0'
1&
0I
0H
0G
1F
1m
0f
0_
0T
1I!
1H!
1G!
0F!
1p
0v
1i
0b
1h
0Z
1a
1@!
1?!
0>!
0=!
1b
0i
1o
0w
0q
0j
1c
0[
1<!
1>!
0?!
0p
1v
0c
1j
0x
1=!
1w
1q
0<!
1x
#492000
1)
1I
1T
0I!
1Z
0a
0@!
0b
1[
1?!
1c
#500000
0!
0>
0V
0W
#504000
0)
1(
0I
1H
1_
0T
1I!
0H!
1b
0h
0Z
1a
1@!
0?!
0b
1h
1i
0o
0c
0[
0>!
1?!
1p
0v
0i
1o
1c
0j
1>!
0=!
0p
1v
0w
0q
1j
1<!
1=!
1w
1q
0x
0<!
1x
#516000
1)
1I
1T
0I!
1Z
0a
0@!
1b
0h
1[
0?!
1i
0o
0c
0>!
1p
0v
0j
0=!
0w
0q
1<!
0x
#525000
1!
1>
1V
1W
#528000
0)
0(
1'
0I
0H
1G
1f
0_
0T
1I!
1H!
0G!
0i
0b
1h
0Z
1a
1@!
1?!
1>!
1b
1i
1j
1c
0[
0>!
0?!
0c
0j
#540000
1)
1I
1T
0I!
1Z
0a
0@!
0b
1[
1?!
1c
#550000
0!
0>
0V
0W
#552000
0)
1(
0I
1H
1_
0T
1I!
0H!
1b
0h
0Z
1a
1@!
0?!
0b
1h
0i
0c
0[
1>!
1?!
1i
1c
1j
0>!
0j
#564000
1)
1I
1T
0I!
1Z
0a
0@!
1b
0h
1[
0?!
0i
0c
1>!
1j
#575000
1!
1>
1V
1W
#576000
0)
0(
0'
0&
1%
0I
0H
0G
0F
1E
1t
0m
0f
0_
0T
1I!
1H!
1G!
1F!
0E!
1w
0}
0p
1v
1i
0b
1h
0Z
1a
1@!
1?!
0>!
1=!
0<!
1b
0i
1o
0w
1}
1~
0&!
1x
1q
0j
1c
0[
0;!
1<!
1>!
0?!
1'!
0-!
0~
1&!
1p
0c
1j
0x
1!!
0=!
1;!
0:!
0'!
1-!
1.!
1(!
0!!
0q
09!
1:!
0.!
0(!
1/!
19!
0/!
#588000
1)
1I
1T
0I!
1Z
0a
0@!
0b
1[
1?!
1c
#600000
0)
1(
0!
0I
1H
0>
0V
1_
0T
0W
1I!
0H!
1b
0h
0Z
1a
1@!
0?!
0b
1h
1i
0o
0c
0[
0>!
1?!
0p
0i
1o
1c
0j
1>!
1=!
1p
1q
1j
0=!
0q
#612000
1)
1I
1T
0I!
1Z
0a
0@!
1b
0h
1[
0?!
1i
0o
0c
0>!
0p
0j
1=!
1q
#624000
0)
0(
1'
0I
0H
1G
1f
0_
0T
1I!
1H!
0G!
0i
0b
1h
0Z
1a
1@!
1?!
1>!
1b
1i
1j
1c
0[
0>!
0?!
0c
0j
#625000
1!
1>
1V
1W
#636000
1)
1I
1T
0I!
1Z
0a
0@!
0b
1[
1?!
1c
#648000
0)
1(
0I
1H
1_
0T
1I!
0H!
1b
0h
0Z
1a
1@!
0?!
0b
1h
0i
0c
0[
1>!
1?!
1i
1c
1j
0>!
0j
#650000
0!
0>
0V
0W
#660000
1)
1I
1T
0I!
1Z
0a
0@!
1b
0h
1[
0?!
0i
0c
1>!
1j
#672000
0)
0(
0'
1&
0I
0H
0G
1F
1m
0f
0_
0T
1I!
1H!
1G!
0F!
1p
0v
1i
0b
1h
0Z
1a
1@!
1?!
0>!
0=!
1b
0i
1o
1w
0}
0q
0j
1c
0[
0<!
1>!
0?!
1~
0&!
0p
1v
0c
1j
1x
1=!
0;!
0w
1}
1'!
0-!
1!!
1q
0:!
1<!
1.!
0~
1&!
0x
1(!
1;!
09!
0'!
1-!
1/!
0!!
1:!
0.!
0(!
19!
0/!
#675000
1!
1>
1V
1W
#684000
1)
1I
1T
0I!
1Z
0a
0@!
0b
1[
1?!
1c
#696000
0)
1(
0I
1H
1_
0T
1I!
0H!
1b
0h
0Z
1a
1@!
0?!
0b
1h
1i
0o
0c
0[
0>!
1?!
1p
0v
0i
1o
1c
0j
1>!
0=!
0p
1v
1w
0}
0q
1j
0<!
1=!
1~
0&!
0w
1}
1q
1x
1<!
0;!
0~
1&!
1'!
0-!
1!!
0x
0:!
1;!
1.!
0'!
1-!
0!!
1(!
1:!
09!
0.!
1/!
0(!
19!
0/!
#700000
0!
0>
0V
0W
#708000
1)
1I
1T
0I!
1Z
0a
0@!
1b
0h
1[
0?!
1i
0o
0c
0>!
1p
0v
0j
0=!
1w
0}
0q
0<!
1~
0&!
1x
0;!
1'!
0-!
1!!
0:!
1.!
1(!
09!
1/!
#720000
0)
0(
1'
0I
0H
1G
1f
0_
0T
1I!
1H!
0G!
0i
0b
1h
0Z
1a
1@!
1?!
1>!
1b
1i
1j
1c
0[
0>!
0?!
0c
0j
#725000
1!
1>
1V
1W
#732000
1)
1I
1T
0I!
1Z
0a
0@!
0b
1[
1?!
1c
#744000
0)
1(
0I
1H
1_
0T
1I!
0H!
1b
0h
0Z
1a
1@!
0?!
0b
1h
0i
0c
0[
1>!
1?!
1i
1c
1j
0>!
0j
#750000
0!
0>
0V
0W
#756000
1)
1I
1T
0I!
1Z
0a
0@!
1b
0h
1[
0?!
0i
0c
1>!
1j
#768000
0)
0(
0'
0&
0%
0$
1#
0I
0H
0G
0F
0E
0D
1C
1$!
0{
0t
0m
0f
0_
0T
1I!
1H!
1G!
1F!
1E!
1D!
0C!
0'!
0~
1&!
0w
1}
0p
1v
1i
0b
1h
0Z
1a
1@!
1?!
0>!
1=!
1<!
1;!
1:!
1b
0i
1o
1w
1~
1'!
0(!
0!!
0x
1q
0j
1c
0[
0:!
0;!
0<!
1>!
0?!
1p
0c
1j
1x
1!!
1(!
0=!
0q
#775000
1!
1>
1V
1W
#780000
1)
1I
1T
0I!
1Z
0a
0@!
0b
1[
1?!
1c
#792000
0)
1(
0I
1H
1_
0T
1I!
0H!
1b
0h
0Z
1a
1@!
0?!
0b
1h
1i
0o
0c
0[
0>!
1?!
0p
0i
1o
1c
0j
1>!
1=!
1p
1q
1j
0=!
0q
#800000
0!
0>
0V
0W
#804000
1)
1I
1T
0I!
1Z
0a
0@!
1b
0h
1[
0?!
1i
0o
0c
0>!
0p
0j
1=!
1q
