lab05/parte2/simulation/qsim/cla_4bits.msim.vcd
$comment
	File created using the following command:
		vcd file cla_4bits.msim.vcd -direction
$end
$date
	Wed Apr  4 13:38:53 2018
$end
$version
	ModelSim Version 10.5b
$end
$timescale
	1ps
$end

$scope module cla_4bits_vhd_vec_tst $end
$var wire 1 ! cin $end
$var wire 1 " cout $end
$var wire 1 # sum [3] $end
$var wire 1 $ sum [2] $end
$var wire 1 % sum [1] $end
$var wire 1 & sum [0] $end
$var wire 1 ' x [3] $end
$var wire 1 ( x [2] $end
$var wire 1 ) x [1] $end
$var wire 1 * x [0] $end
$var wire 1 + y [3] $end
$var wire 1 , y [2] $end
$var wire 1 - y [1] $end
$var wire 1 . y [0] $end

$scope module i1 $end
$var wire 1 / gnd $end
$var wire 1 0 vcc $end
$var wire 1 1 unknown $end
$var wire 1 2 devoe $end
$var wire 1 3 devclrn $end
$var wire 1 4 devpor $end
$var wire 1 5 ww_devoe $end
$var wire 1 6 ww_devclrn $end
$var wire 1 7 ww_devpor $end
$var wire 1 8 ww_x [3] $end
$var wire 1 9 ww_x [2] $end
$var wire 1 : ww_x [1] $end
$var wire 1 ; ww_x [0] $end
$var wire 1 < ww_y [3] $end
$var wire 1 = ww_y [2] $end
$var wire 1 > ww_y [1] $end
$var wire 1 ? ww_y [0] $end
$var wire 1 @ ww_cin $end
$var wire 1 A ww_sum [3] $end
$var wire 1 B ww_sum [2] $end
$var wire 1 C ww_sum [1] $end
$var wire 1 D ww_sum [0] $end
$var wire 1 E ww_cout $end
$var wire 1 F \~QUARTUS_CREATED_GND~I_combout\ $end
$var wire 1 G \y[0]~input_o\ $end
$var wire 1 H \cin~input_o\ $end
$var wire 1 I \x[0]~input_o\ $end
$var wire 1 J \sum~0_combout\ $end
$var wire 1 K \x[1]~input_o\ $end
$var wire 1 L \y[1]~input_o\ $end
$var wire 1 M \sum~1_combout\ $end
$var wire 1 N \sum~2_combout\ $end
$var wire 1 O \y[2]~input_o\ $end
$var wire 1 P \x[2]~input_o\ $end
$var wire 1 Q \sum~3_combout\ $end
$var wire 1 R \x[3]~input_o\ $end
$var wire 1 S \y[3]~input_o\ $end
$var wire 1 T \sum~4_combout\ $end
$var wire 1 U \carry~0_combout\ $end
$var wire 1 V \ALT_INV_y[1]~input_o\ $end
$var wire 1 W \ALT_INV_x[1]~input_o\ $end
$var wire 1 X \ALT_INV_cin~input_o\ $end
$var wire 1 Y \ALT_INV_y[0]~input_o\ $end
$var wire 1 Z \ALT_INV_x[0]~input_o\ $end
$var wire 1 [ \ALT_INV_sum~2_combout\ $end
$var wire 1 \ \ALT_INV_y[3]~input_o\ $end
$var wire 1 ] \ALT_INV_x[3]~input_o\ $end
$var wire 1 ^ \ALT_INV_y[2]~input_o\ $end
$var wire 1 _ \ALT_INV_x[2]~input_o\ $end
$upscope $end
$upscope $end
$enddefinitions $end
#0
$dumpvars
0!
0"
0/
10
x1
12
13
14
15
16
17
0@
0E
xF
0G
0H
0I
0J
0K
0L
0M
0N
0O
0P
0Q
0R
0S
0T
0U
1V
1W
1X
1Y
1Z
1[
1\
1]
1^
1_
0'
0(
0)
0*
0+
0,
0-
0.
08
09
0:
0;
0<
0=
0>
0?
0A
0B
0C
0D
0#
0$
0%
0&
$end
#10000
1.
1?
1G
0Y
1J
1D
1&
#20000
0.
1-
0?
1>
1L
0G
1Y
0V
0J
1M
1C
0D
0&
1%
#30000
1.
1?
1G
0Y
1J
1D
1&
#40000
0.
0-
1,
0?
0>
1=
1O
0L
0G
1Y
1V
0^
1Q
0J
0M
0C
0D
1B
0&
0%
1$
#50000
1.
1?
1G
0Y
1J
1D
1&
#60000
0.
1-
0?
1>
1L
0G
1Y
0V
0J
1M
1C
0D
0&
1%
#70000
1.
1?
1G
0Y
1J
1D
1&
#80000
0.
0-
0,
1+
0?
0>
0=
1<
1S
0O
0L
0G
1Y
1V
1^
0\
0Q
1T
0J
0M
0C
0D
1A
0B
0&
0%
0$
1#
#90000
1.
1?
1G
0Y
1J
1D
1&
#100000
0.
1-
0?
1>
1L
0G
1Y
0V
0J
1M
1C
0D
0&
1%
#110000
1.
1?
1G
0Y
1J
1D
1&
#120000
0.
0-
1,
0?
0>
1=
1O
0L
0G
1Y
1V
0^
1Q
0J
0M
0C
0D
1B
0&
0%
1$
#130000
1.
1?
1G
0Y
1J
1D
1&
#140000
0.
1-
0?
1>
1L
0G
1Y
0V
0J
1M
1C
0D
0&
1%
#150000
1.
1?
1G
0Y
1J
1D
1&
#160000
0.
0-
0,
0+
1*
0?
0>
0=
0<
1;
1I
0S
0O
0L
0G
1Y
1V
1^
1\
0Z
0Q
0T
0M
0C
0A
0B
0%
0$
0#
#170000
1.
1?
1G
0Y
0J
1M
1C
0D
0&
1%
#180000
0.
1-
0?
1>
1L
0G
1Y
0V
1J
1D
1&
#190000
1.
1?
1G
0Y
0J
0M
1N
0[
1Q
0C
0D
0&
0%
1B
1$
#200000
0.
0-
1,
0?
0>
1=
1O
0L
0G
1Y
1V
0^
0Q
1T
1J
0N
1[
1Q
0T
1D
1A
0B
1&
0$
1#
0A
1B
1$
0#
#210000
1.
1?
1G
0Y
0J
1M
1C
0D
0&
1%
#220000
0.
1-
0?
1>
1L
0G
1Y
0V
1J
1D
1&
#230000
1.
1?
1G
0Y
0J
0M
1N
0[
0Q
1T
0C
0D
0&
0%
1A
0B
0$
1#
#240000
0.
0-
0,
1+
0?
0>
0=
1<
1S
0O
0L
0G
1Y
1V
1^
0\
1Q
1J
0N
1[
0Q
1D
1B
1&
1$
0B
0$
#250000
1.
1?
1G
0Y
0J
1M
1C
0D
0&
1%
#260000
0.
1-
0?
1>
1L
0G
1Y
0V
1J
1D
1&
#270000
1.
1?
1G
0Y
0J
0M
1N
0[
1Q
0C
0D
0&
0%
1B
1$
#280000
0.
0-
1,
0?
0>
1=
1O
0L
0G
1Y
1V
0^
0Q
0T
1U
1J
0N
1[
1Q
1T
0U
1D
1E
0A
0B
1&
0$
0#
1"
0E
1A
1B
0"
1$
1#
#290000
1.
1?
1G
0Y
0J
1M
1C
0D
0&
1%
#300000
0.
1-
0?
1>
1L
0G
1Y
0V
1J
1D
1&
#310000
1.
1?
1G
0Y
0J
0M
1N
0[
0Q
0T
1U
0C
0D
0&
0%
1E
0A
0B
1"
0$
0#
#320000
0.
0-
0,
0+
0*
1)
0?
0>
0=
0<
0;
1:
1K
0I
0S
0O
0L
0G
1Y
1V
1^
1\
1Z
0W
1Q
0U
1M
0N
1[
0Q
1C
0E
1B
1%
1$
0"
0B
0$
#330000
1.
1?
1G
0Y
1J
1D
1&
#340000
0.
1-
0?
1>
1L
0G
1Y
0V
0J
0M
1N
0[
1Q
0C
0D
0&
0%
1B
1$
#350000
1.
1?
1G
0Y
1J
1D
1&
#360000
0.
0-
1,
0?
0>
1=
1O
0L
0G
1Y
1V
0^
0Q
1T
0J
1M
0N
1[
1Q
0T
1C
0D
1A
0B
0&
1%
0$
1#
0A
1B
1$
0#
#370000
1.
1?
1G
0Y
1J
1D
1&
#380000
0.
1-
0?
1>
1L
0G
1Y
0V
0J
0M
1N
0[
0Q
1T
0C
0D
0&
0%
1A
0B
0$
1#
#390000
1.
1?
1G
0Y
1J
1D
1&
#400000
0.
0-
0,
1+
0?
0>
0=
1<
1S
0O
0L
0G
1Y
1V
1^
0\
1Q
0J
1M
0N
1[
0Q
1C
0D
1B
0&
1%
1$
0B
0$
#410000
1.
1?
1G
0Y
1J
1D
1&
#420000
0.
1-
0?
1>
1L
0G
1Y
0V
0J
0M
1N
0[
1Q
0C
0D
0&
0%
1B
1$
#430000
1.
1?
1G
0Y
1J
1D
1&
#440000
0.
0-
1,
0?
0>
1=
1O
0L
0G
1Y
1V
0^
0Q
0T
1U
0J
1M
0N
1[
1Q
1T
0U
1C
0D
1E
0A
0B
0&
1%
0$
0#
1"
0E
1A
1B
0"
1$
1#
#450000
1.
1?
1G
0Y
1J
1D
1&
#460000
0.
1-
0?
1>
1L
0G
1Y
0V
0J
0M
1N
0[
0Q
0T
1U
0C
0D
0&
0%
1E
0A
0B
1"
0$
0#
#470000
1.
1?
1G
0Y
1J
1D
1&
#480000
0.
0-
0,
0+
1*
0?
0>
0=
0<
1;
1I
0S
0O
0L
0G
1Y
1V
1^
1\
0Z
1Q
0U
1M
0N
1[
0Q
1C
0E
1B
1%
1$
0"
0B
0$
#490000
1.
1?
1G
0Y
0J
0M
1N
0[
1Q
0C
0D
0&
0%
1B
1$
#500000
0.
1-
0?
1>
1L
0G
1Y
0V
1J
1D
1&
#510000
1.
1?
1G
0Y
0J
1M
1C
0D
0&
1%
#520000
0.
0-
1,
0?
0>
1=
1O
0L
0G
1Y
1V
0^
0Q
1T
1J
0N
1[
1Q
0T
1D
1A
0B
1&
0$
1#
0A
1B
1$
0#
#530000
1.
1?
1G
0Y
0J
0M
1N
0[
0Q
1T
0C
0D
0&
0%
1A
0B
0$
1#
#540000
0.
1-
0?
1>
1L
0G
1Y
0V
1J
1D
1&
#550000
1.
1?
1G
0Y
0J
1M
1C
0D
0&
1%
#560000
0.
0-
0,
1+
0?
0>
0=
1<
1S
0O
0L
0G
1Y
1V
1^
0\
1Q
1J
0N
1[
0Q
1D
1B
1&
1$
0B
0$
#570000
1.
1?
1G
0Y
0J
0M
1N
0[
1Q
0C
0D
0&
0%
1B
1$
#580000
0.
1-
0?
1>
1L
0G
1Y
0V
1J
1D
1&
#590000
1.
1?
1G
0Y
0J
1M
1C
0D
0&
1%
#600000
0.
0-
1,
0?
0>
1=
1O
0L
0G
1Y
1V
0^
0Q
0T
1U
1J
0N
1[
1Q
1T
0U
1D
1E
0A
0B
1&
0$
0#
1"
0E
1A
1B
0"
1$
1#
#610000
1.
1?
1G
0Y
0J
0M
1N
0[
0Q
0T
1U
0C
0D
0&
0%
1E
0A
0B
1"
0$
0#
#620000
0.
1-
0?
1>
1L
0G
1Y
0V
1J
1D
1&
#630000
1.
1?
1G
0Y
0J
1M
1C
0D
0&
1%
#640000
0.
0-
0,
0+
0*
0)
1(
0?
0>
0=
0<
0;
0:
19
1P
0K
0I
0S
0O
0L
0G
1Y
1V
1^
1\
1Z
1W
0_
1T
0U
0M
0N
1[
1Q
0T
0C
0E
1A
0%
1#
0"
0A
1B
1$
0#
#650000
1.
1?
1G
0Y
1J
1D
1&
#660000
0.
1-
0?
1>
1L
0G
1Y
0V
0J
1M
1C
0D
0&
1%
#670000
1.
1?
1G
0Y
1J
1D
1&
#680000
0.
0-
1,
0?
0>
1=
1O
0L
0G
1Y
1V
0^
0Q
1T
0J
0M
0C
0D
1A
0B
0&
0%
0$
1#
#690000
1.
1?
1G
0Y
1J
1D
1&
#700000
0.
1-
0?
1>
1L
0G
1Y
0V
0J
1M
1C
0D
0&
1%
#710000
1.
1?
1G
0Y
1J
1D
1&
#720000
0.
0-
0,
1+
0?
0>
0=
1<
1S
0O
0L
0G
1Y
1V
1^
0\
1Q
0J
0M
0C
0D
1B
0&
0%
1$
#730000
1.
1?
1G
0Y
1J
1D
1&
#740000
0.
1-
0?
1>
1L
0G
1Y
0V
0J
1M
1C
0D
0&
1%
#750000
1.
1?
1G
0Y
1J
1D
1&
#760000
0.
0-
1,
0?
0>
1=
1O
0L
0G
1Y
1V
0^
0Q
0T
1U
0J
0M
0C
0D
1E
0A
0B
0&
0%
0$
0#
1"
#770000
1.
1?
1G
0Y
1J
1D
1&
#780000
0.
1-
0?
1>
1L
0G
1Y
0V
0J
1M
1C
0D
0&
1%
#790000
1.
1?
1G
0Y
1J
1D
1&
#800000
0.
0-
0,
0+
1*
0?
0>
0=
0<
1;
1I
0S
0O
0L
0G
1Y
1V
1^
1\
0Z
1Q
0U
0M
0C
0E
1B
0%
1$
0"
#810000
1.
1?
1G
0Y
0J
1M
1C
0D
0&
1%
#820000
0.
1-
0?
1>
1L
0G
1Y
0V
1J
1D
1&
#830000
1.
1?
1G
0Y
0J
0M
1N
0[
0Q
1T
0C
0D
0&
0%
1A
0B
0$
1#
#840000
0.
0-
1,
0?
0>
1=
1O
0L
0G
1Y
1V
0^
1Q
1J
0N
1[
0Q
1D
1B
1&
1$
0B
0$
#850000
1.
1?
1G
0Y
0J
1M
1C
0D
0&
1%
#860000
0.
1-
0?
1>
1L
0G
1Y
0V
1J
1D
1&
#870000
1.
1?
1G
0Y
0J
0M
1N
0[
1Q
0C
0D
0&
0%
1B
1$
#880000
0.
0-
0,
1+
0?
0>
0=
1<
1S
0O
0L
0G
1Y
1V
1^
0\
0Q
0T
1U
1J
0N
1[
1Q
1T
0U
1D
1E
0A
0B
1&
0$
0#
1"
0E
1A
1B
0"
1$
1#
#890000
1.
1?
1G
0Y
0J
1M
1C
0D
0&
1%
#900000
0.
1-
0?
1>
1L
0G
1Y
0V
1J
1D
1&
#910000
1.
1?
1G
0Y
0J
0M
1N
0[
0Q
0T
1U
0C
0D
0&
0%
1E
0A
0B
1"
0$
0#
#920000
0.
0-
1,
0?
0>
1=
1O
0L
0G
1Y
1V
0^
1Q
1J
0N
1[
0Q
1D
1B
1&
1$
0B
0$
#930000
1.
1?
1G
0Y
0J
1M
1C
0D
0&
1%
#940000
0.
1-
0?
1>
1L
0G
1Y
0V
1J
1D
1&
#950000
1.
1?
1G
0Y
0J
0M
1N
0[
1Q
0C
0D
0&
0%
1B
1$
#960000
0.
0-
0,
0+
0*
1)
0?
0>
0=
0<
0;
1:
1K
0I
0S
0O
0L
0G
1Y
1V
1^
1\
1Z
0W
0Q
1T
0U
1M
0N
1[
1Q
0T
1C
0E
1A
0B
1%
0$
1#
0"
0A
1B
1$
0#
#970000
1.
1?
1G
0Y
1J
1D
1&
#980000
0.
1-
0?
1>
1L
0G
1Y
0V
0J
0M
1N
0[
0Q
1T
0C
0D
0&
0%
1A
0B
0$
1#
#990000
1.
1?
1G
0Y
1J
1D
1&
#1000000
0.
0-
1,
0?
0>
1=
1O
0L
0G
1Y
1V
0^
1Q
0J
1M
0N
1[
0Q
1C
0D
1B
0&
1%
1$
0B
0$
#1010000
1.
1?
1G
0Y
1J
1D
1&
#1020000
0.
1-
0?
1>
1L
0G
1Y
0V
0J
0M
1N
0[
1Q
0C
0D
0&
0%
1B
1$
#1030000
1.
1?
1G
0Y
1J
1D
1&
#1040000
0.
0-
0,
1+
0?
0>
0=
1<
1S
0O
0L
0G
1Y
1V
1^
0\
0Q
0T
1U
0J
1M
0N
1[
1Q
1T
0U
1C
0D
1E
0A
0B
0&
1%
0$
0#
1"
0E
1A
1B
0"
1$
1#
#1050000
1.
1?
1G
0Y
1J
1D
1&
#1060000
0.
1-
0?
1>
1L
0G
1Y
0V
0J
0M
1N
0[
0Q
0T
1U
0C
0D
0&
0%
1E
0A
0B
1"
0$
0#
#1070000
1.
1?
1G
0Y
1J
1D
1&
#1080000
0.
0-
1,
0?
0>
1=
1O
0L
0G
1Y
1V
0^
1Q
0J
1M
0N
1[
0Q
1C
0D
1B
0&
1%
1$
0B
0$
#1090000
1.
1?
1G
0Y
1J
1D
1&
#1100000
0.
1-
0?
1>
1L
0G
1Y
0V
0J
0M
1N
0[
1Q
0C
0D
0&
0%
1B
1$
#1110000
1.
1?
1G
0Y
1J
1D
1&
#1120000
0.
0-
0,
0+
1*
0?
0>
0=
0<
1;
1I
0S
0O
0L
0G
1Y
1V
1^
1\
0Z
0Q
1T
0U
1M
0N
1[
1Q
0T
1C
0E
1A
0B
1%
0$
1#
0"
0A
1B
1$
0#
#1130000
1.
1?
1G
0Y
0J
0M
1N
0[
0Q
1T
0C
0D
0&
0%
1A
0B
0$
1#
#1140000
0.
1-
0?
1>
1L
0G
1Y
0V
1J
1D
1&
#1150000
1.
1?
1G
0Y
0J
1M
1C
0D
0&
1%
#1160000
0.
0-
1,
0?
0>
1=
1O
0L
0G
1Y
1V
0^
1Q
1J
0N
1[
0Q
1D
1B
1&
1$
0B
0$
#1170000
1.
1?
1G
0Y
0J
0M
1N
0[
1Q
0C
0D
0&
0%
1B
1$
#1180000
0.
1-
0?
1>
1L
0G
1Y
0V
1J
1D
1&
#1190000
1.
1?
1G
0Y
0J
1M
1C
0D
0&
1%
#1200000
0.
0-
0,
1+
0?
0>
0=
1<
1S
0O
0L
0G
1Y
1V
1^
0\
0Q
0T
1U
1J
0N
1[
1Q
1T
0U
1D
1E
0A
0B
1&
0$
0#
1"
0E
1A
1B
0"
1$
1#
#1210000
1.
1?
1G
0Y
0J
0M
1N
0[
0Q
0T
1U
0C
0D
0&
0%
1E
0A
0B
1"
0$
0#
#1220000
0.
1-
0?
1>
1L
0G
1Y
0V
1J
1D
1&
#1230000
1.
1?
1G
0Y
0J
1M
1C
0D
0&
1%
#1240000
0.
0-
1,
0?
0>
1=
1O
0L
0G
1Y
1V
0^
1Q
1J
0N
1[
0Q
1D
1B
1&
1$
0B
0$
#1250000
1.
1?
1G
0Y
0J
0M
1N
0[
1Q
0C
0D
0&
0%
1B
1$
#1260000
0.
1-
0?
1>
1L
0G
1Y
0V
1J
1D
1&
#1270000
1.
1?
1G
0Y
0J
1M
1C
0D
0&
1%
#1280000
0.
0-
0,
0+
0*
0)
0(
1'
0?
0>
0=
0<
0;
0:
09
18
1R
0P
0K
0I
0S
0O
0L
0G
1Y
1V
1^
1\
1Z
1W
1_
0]
1T
0U
0M
0N
1[
0Q
0C
0E
1A
0%
1#
0"
0B
0$
#1290000
1.
1?
1G
0Y
1J
1D
1&
#1300000
0.
1-
0?
1>
1L
0G
1Y
0V
0J
1M
1C
0D
0&
1%
#1310000
1.
1?
1G
0Y
1J
1D
1&
#1320000
0.
0-
1,
0?
0>
1=
1O
0L
0G
1Y
1V
0^
1Q
0J
0M
0C
0D
1B
0&
0%
1$
#1330000
1.
1?
1G
0Y
1J
1D
1&
#1340000
0.
1-
0?
1>
1L
0G
1Y
0V
0J
1M
1C
0D
0&
1%
#1350000
1.
1?
1G
0Y
1J
1D
1&
#1360000
0.
0-
0,
1+
0?
0>
0=
1<
1S
0O
0L
0G
1Y
1V
1^
0\
0Q
0T
1U
0J
0M
0C
0D
1E
0A
0B
0&
0%
0$
0#
1"
#1370000
1.
1?
1G
0Y
1J
1D
1&
#1380000
0.
1-
0?
1>
1L
0G
1Y
0V
0J
1M
1C
0D
0&
1%
#1390000
1.
1?
1G
0Y
1J
1D
1&
#1400000
0.
0-
1,
0?
0>
1=
1O
0L
0G
1Y
1V
0^
1Q
0J
0M
0C
0D
1B
0&
0%
1$
#1410000
1.
1?
1G
0Y
1J
1D
1&
#1420000
0.
1-
0?
1>
1L
0G
1Y
0V
0J
1M
1C
0D
0&
1%
#1430000
1.
1?
1G
0Y
1J
1D
1&
#1440000
0.
0-
0,
0+
1*
0?
0>
0=
0<
1;
1I
0S
0O
0L
0G
1Y
1V
1^
1\
0Z
0Q
1T
0U
0M
0C
0E
1A
0B
0%
0$
1#
0"
#1450000
1.
1?
1G
0Y
0J
1M
1C
0D
0&
1%
#1460000
0.
1-
0?
1>
1L
0G
1Y
0V
1J
1D
1&
#1470000
1.
1?
1G
0Y
0J
0M
1N
0[
1Q
0C
0D
0&
0%
1B
1$
#1480000
0.
0-
1,
0?
0>
1=
1O
0L
0G
1Y
1V
0^
0Q
0T
1U
1J
0N
1[
1Q
1T
0U
1D
1E
0A
0B
1&
0$
0#
1"
0E
1A
1B
0"
1$
1#
#1490000
1.
1?
1G
0Y
0J
1M
1C
0D
0&
1%
#1500000
0.
1-
0?
1>
1L
0G
1Y
0V
1J
1D
1&
#1510000
1.
1?
1G
0Y
0J
0M
1N
0[
0Q
0T
1U
0C
0D
0&
0%
1E
0A
0B
1"
0$
0#
#1520000
0.
0-
0,
1+
0?
0>
0=
1<
1S
0O
0L
0G
1Y
1V
1^
0\
1Q
1J
0N
1[
0Q
1D
1B
1&
1$
0B
0$
#1530000
1.
1?
1G
0Y
0J
1M
1C
0D
0&
1%
#1540000
0.
1-
0?
1>
1L
0G
1Y
0V
1J
1D
1&
#1550000
1.
1?
1G
0Y
0J
0M
1N
0[
1Q
0C
0D
0&
0%
1B
1$
#1560000
0.
0-
1,
0?
0>
1=
1O
0L
0G
1Y
1V
0^
0Q
1T
1J
0N
1[
1Q
0T
1D
1A
0B
1&
0$
1#
0A
1B
1$
0#
#1570000
1.
1?
1G
0Y
0J
1M
1C
0D
0&
1%
#1580000
0.
1-
0?
1>
1L
0G
1Y
0V
1J
1D
1&
#1590000
1.
1?
1G
0Y
0J
0M
1N
0[
0Q
1T
0C
0D
0&
0%
1A
0B
0$
1#
#1600000
0.
0-
0,
0+
0*
1)
0?
0>
0=
0<
0;
1:
1K
0I
0S
0O
0L
0G
1Y
1V
1^
1\
1Z
0W
1Q
0U
1M
0N
1[
0Q
1C
0E
1B
1%
1$
0"
0B
0$
#1610000
1.
1?
1G
0Y
1J
1D
1&
#1620000
0.
1-
0?
1>
1L
0G
1Y
0V
0J
0M
1N
0[
1Q
0C
0D
0&
0%
1B
1$
#1630000
1.
1?
1G
0Y
1J
1D
1&
#1640000
0.
0-
1,
0?
0>
1=
1O
0L
0G
1Y
1V
0^
0Q
0T
1U
0J
1M
0N
1[
1Q
1T
0U
1C
0D
1E
0A
0B
0&
1%
0$
0#
1"
0E
1A
1B
0"
1$
1#
#1650000
1.
1?
1G
0Y
1J
1D
1&
#1660000
0.
1-
0?
1>
1L
0G
1Y
0V
0J
0M
1N
0[
0Q
0T
1U
0C
0D
0&
0%
1E
0A
0B
1"
0$
0#
#1670000
1.
1?
1G
0Y
1J
1D
1&
#1680000
0.
0-
0,
1+
0?
0>
0=
1<
1S
0O
0L
0G
1Y
1V
1^
0\
1Q
0J
1M
0N
1[
0Q
1C
0D
1B
0&
1%
1$
0B
0$
#1690000
1.
1?
1G
0Y
1J
1D
1&
#1700000
0.
1-
0?
1>
1L
0G
1Y
0V
0J
0M
1N
0[
1Q
0C
0D
0&
0%
1B
1$
#1710000
1.
1?
1G
0Y
1J
1D
1&
#1720000
0.
0-
1,
0?
0>
1=
1O
0L
0G
1Y
1V
0^
0Q
1T
0J
1M
0N
1[
1Q
0T
1C
0D
1A
0B
0&
1%
0$
1#
0A
1B
1$
0#
#1730000
1.
1?
1G
0Y
1J
1D
1&
#1740000
0.
1-
0?
1>
1L
0G
1Y
0V
0J
0M
1N
0[
0Q
1T
0C
0D
0&
0%
1A
0B
0$
1#
#1750000
1.
1?
1G
0Y
1J
1D
1&
#1760000
0.
0-
0,
0+
1*
0?
0>
0=
0<
1;
1I
0S
0O
0L
0G
1Y
1V
1^
1\
0Z
1Q
0U
1M
0N
1[
0Q
1C
0E
1B
1%
1$
0"
0B
0$
#1770000
1.
1?
1G
0Y
0J
0M
1N
0[
1Q
0C
0D
0&
0%
1B
1$
#1780000
0.
1-
0?
1>
1L
0G
1Y
0V
1J
1D
1&
#1790000
1.
1?
1G
0Y
0J
1M
1C
0D
0&
1%
#1800000
0.
0-
1,
0?
0>
1=
1O
0L
0G
1Y
1V
0^
0Q
0T
1U
1J
0N
1[
1Q
1T
0U
1D
1E
0A
0B
1&
0$
0#
1"
0E
1A
1B
0"
1$
1#
#1810000
1.
1?
1G
0Y
0J
0M
1N
0[
0Q
0T
1U
0C
0D
0&
0%
1E
0A
0B
1"
0$
0#
#1820000
0.
1-
0?
1>
1L
0G
1Y
0V
1J
1D
1&
#1830000
1.
1?
1G
0Y
0J
1M
1C
0D
0&
1%
#1840000
0.
0-
0,
1+
0?
0>
0=
1<
1S
0O
0L
0G
1Y
1V
1^
0\
1Q
1J
0N
1[
0Q
1D
1B
1&
1$
0B
0$
#1850000
1.
1?
1G
0Y
0J
0M
1N
0[
1Q
0C
0D
0&
0%
1B
1$
#1860000
0.
1-
0?
1>
1L
0G
1Y
0V
1J
1D
1&
#1870000
1.
1?
1G
0Y
0J
1M
1C
0D
0&
1%
#1880000
0.
0-
1,
0?
0>
1=
1O
0L
0G
1Y
1V
0^
0Q
1T
1J
0N
1[
1Q
0T
1D
1A
0B
1&
0$
1#
0A
1B
1$
0#
#1890000
1.
1?
1G
0Y
0J
0M
1N
0[
0Q
1T
0C
0D
0&
0%
1A
0B
0$
1#
#1900000
0.
1-
0?
1>
1L
0G
1Y
0V
1J
1D
1&
#1910000
1.
1?
1G
0Y
0J
1M
1C
0D
0&
1%
#1920000
0.
0-
0,
0+
0*
0)
1(
0?
0>
0=
0<
0;
0:
19
1P
0K
0I
0S
0O
0L
0G
1Y
1V
1^
1\
1Z
1W
0_
0T
0M
0N
1[
1Q
1T
0U
0C
0A
0%
0#
0E
1A
1B
0"
1$
1#
#1930000
1.
1?
1G
0Y
1J
1D
1&
#1940000
0.
1-
0?
1>
1L
0G
1Y
0V
0J
1M
1C
0D
0&
1%
#1950000
1.
1?
1G
0Y
1J
1D
1&
#1960000
0.
0-
1,
0?
0>
1=
1O
0L
0G
1Y
1V
0^
0Q
0T
1U
0J
0M
0C
0D
1E
0A
0B
0&
0%
0$
0#
1"
#1970000
1.
1?
1G
0Y
1J
1D
1&
#1980000
0.
1-
0?
1>
1L
0G
1Y
0V
0J
1M
1C
0D
0&
1%
#1990000
1.
1?
1G
0Y
1J
1D
1&
#2000000
0.
0-
0,
1+
0?
0>
0=
1<
1S
0O
0L
0G
1Y
1V
1^
0\
1Q
0J
0M
0C
0D
1B
0&
0%
1$
#2010000
1.
1?
1G
0Y
1J
1D
1&
#2020000
0.
1-
0?
1>
1L
0G
1Y
0V
0J
1M
1C
0D
0&
1%
#2030000
1.
1?
1G
0Y
1J
1D
1&
#2040000
0.
0-
1,
0?
0>
1=
1O
0L
0G
1Y
1V
0^
0Q
1T
0J
0M
0C
0D
1A
0B
0&
0%
0$
1#
#2050000
1.
1?
1G
0Y
1J
1D
1&
#2060000
0.
1-
0?
1>
1L
0G
1Y
0V
0J
1M
1C
0D
0&
1%
#2070000
1.
1?
1G
0Y
1J
1D
1&
#2080000
0.
0-
0,
0+
1*
0?
0>
0=
0<
1;
1I
0S
0O
0L
0G
1Y
1V
1^
1\
0Z
1Q
0U
0M
0C
0E
1B
0%
1$
0"
#2090000
1.
1?
1G
0Y
0J
1M
1C
0D
0&
1%
#2100000
0.
1-
0?
1>
1L
0G
1Y
0V
1J
1D
1&
#2110000
1.
1?
1G
0Y
0J
0M
1N
0[
0Q
0T
1U
0C
0D
0&
0%
1E
0A
0B
1"
0$
0#
#2120000
0.
0-
1,
0?
0>
1=
1O
0L
0G
1Y
1V
0^
1Q
1J
0N
1[
0Q
1D
1B
1&
1$
0B
0$
#2130000
1.
1?
1G
0Y
0J
1M
1C
0D
0&
1%
#2140000
0.
1-
0?
1>
1L
0G
1Y
0V
1J
1D
1&
#2150000
1.
1?
1G
0Y
0J
0M
1N
0[
1Q
0C
0D
0&
0%
1B
1$
#2160000
0.
0-
0,
1+
0?
0>
0=
1<
1S
0O
0L
0G
1Y
1V
1^
0\
0Q
1T
1J
0N
1[
1Q
0T
1D
1A
0B
1&
0$
1#
0A
1B
1$
0#
#2170000
1.
1?
1G
0Y
0J
1M
1C
0D
0&
1%
#2180000
0.
1-
0?
1>
1L
0G
1Y
0V
1J
1D
1&
#2190000
1.
1?
1G
0Y
0J
0M
1N
0[
0Q
1T
0C
0D
0&
0%
1A
0B
0$
1#
#2200000
0.
0-
1,
0?
0>
1=
1O
0L
0G
1Y
1V
0^
1Q
1J
0N
1[
0Q
1D
1B
1&
1$
0B
0$
#2210000
1.
1?
1G
0Y
0J
1M
1C
0D
0&
1%
#2220000
0.
1-
0?
1>
1L
0G
1Y
0V
1J
1D
1&
#2230000
1.
1?
1G
0Y
0J
0M
1N
0[
1Q
0C
0D
0&
0%
1B
1$
#2240000
0.
0-
0,
0+
0*
1)
0?
0>
0=
0<
0;
1:
1K
0I
0S
0O
0L
0G
1Y
1V
1^
1\
1Z
0W
0Q
0T
1M
0N
1[
1Q
1T
0U
1C
0A
0B
1%
0$
0#
0E
1A
1B
0"
1$
1#
#2250000
1.
1?
1G
0Y
1J
1D
1&
#2260000
0.
1-
0?
1>
1L
0G
1Y
0V
0J
0M
1N
0[
0Q
0T
1U
0C
0D
0&
0%
1E
0A
0B
1"
0$
0#
#2270000
1.
1?
1G
0Y
1J
1D
1&
#2280000
0.
0-
1,
0?
0>
1=
1O
0L
0G
1Y
1V
0^
1Q
0J
1M
0N
1[
0Q
1C
0D
1B
0&
1%
1$
0B
0$
#2290000
1.
1?
1G
0Y
1J
1D
1&
#2300000
0.
1-
0?
1>
1L
0G
1Y
0V
0J
0M
1N
0[
1Q
0C
0D
0&
0%
1B
1$
#2310000
1.
1?
1G
0Y
1J
1D
1&
#2320000
0.
0-
0,
1+
0?
0>
0=
1<
1S
0O
0L
0G
1Y
1V
1^
0\
0Q
1T
0J
1M
0N
1[
1Q
0T
1C
0D
1A
0B
0&
1%
0$
1#
0A
1B
1$
0#
#2330000
1.
1?
1G
0Y
1J
1D
1&
#2340000
0.
1-
0?
1>
1L
0G
1Y
0V
0J
0M
1N
0[
0Q
1T
0C
0D
0&
0%
1A
0B
0$
1#
#2350000
1.
1?
1G
0Y
1J
1D
1&
#2360000
0.
0-
1,
0?
0>
1=
1O
0L
0G
1Y
1V
0^
1Q
0J
1M
0N
1[
0Q
1C
0D
1B
0&
1%
1$
0B
0$
#2370000
1.
1?
1G
0Y
1J
1D
1&
#2380000
0.
1-
0?
1>
1L
0G
1Y
0V
0J
0M
1N
0[
1Q
0C
0D
0&
0%
1B
1$
#2390000
1.
1?
1G
0Y
1J
1D
1&
#2400000
0.
0-
0,
0+
1*
0?
0>
0=
0<
1;
1I
0S
0O
0L
0G
1Y
1V
1^
1\
0Z
0Q
0T
1M
0N
1[
1Q
1T
0U
1C
0A
0B
1%
0$
0#
0E
1A
1B
0"
1$
1#
