lab05/parte2c/simulation/qsim/cla_8bits_partial.msim.vcd
$comment
	File created using the following command:
		vcd file cla_8bits_partial.msim.vcd -direction
$end
$date
	Wed Apr  4 15:35:25 2018
$end
$version
	ModelSim Version 10.5b
$end
$timescale
	1ps
$end

$scope module cla_8bits_partial_vhd_vec_tst $end
$var wire 1 ! cin $end
$var wire 1 " cout $end
$var wire 1 # sum [7] $end
$var wire 1 $ sum [6] $end
$var wire 1 % sum [5] $end
$var wire 1 & sum [4] $end
$var wire 1 ' sum [3] $end
$var wire 1 ( sum [2] $end
$var wire 1 ) sum [1] $end
$var wire 1 * sum [0] $end
$var wire 1 + x [7] $end
$var wire 1 , x [6] $end
$var wire 1 - x [5] $end
$var wire 1 . x [4] $end
$var wire 1 / x [3] $end
$var wire 1 0 x [2] $end
$var wire 1 1 x [1] $end
$var wire 1 2 x [0] $end
$var wire 1 3 y [7] $end
$var wire 1 4 y [6] $end
$var wire 1 5 y [5] $end
$var wire 1 6 y [4] $end
$var wire 1 7 y [3] $end
$var wire 1 8 y [2] $end
$var wire 1 9 y [1] $end
$var wire 1 : y [0] $end

$scope module i1 $end
$var wire 1 ; gnd $end
$var wire 1 < vcc $end
$var wire 1 = unknown $end
$var wire 1 > devoe $end
$var wire 1 ? devclrn $end
$var wire 1 @ devpor $end
$var wire 1 A ww_devoe $end
$var wire 1 B ww_devclrn $end
$var wire 1 C ww_devpor $end
$var wire 1 D ww_x [7] $end
$var wire 1 E ww_x [6] $end
$var wire 1 F ww_x [5] $end
$var wire 1 G ww_x [4] $end
$var wire 1 H ww_x [3] $end
$var wire 1 I ww_x [2] $end
$var wire 1 J ww_x [1] $end
$var wire 1 K ww_x [0] $end
$var wire 1 L ww_y [7] $end
$var wire 1 M ww_y [6] $end
$var wire 1 N ww_y [5] $end
$var wire 1 O ww_y [4] $end
$var wire 1 P ww_y [3] $end
$var wire 1 Q ww_y [2] $end
$var wire 1 R ww_y [1] $end
$var wire 1 S ww_y [0] $end
$var wire 1 T ww_cin $end
$var wire 1 U ww_sum [7] $end
$var wire 1 V ww_sum [6] $end
$var wire 1 W ww_sum [5] $end
$var wire 1 X ww_sum [4] $end
$var wire 1 Y ww_sum [3] $end
$var wire 1 Z ww_sum [2] $end
$var wire 1 [ ww_sum [1] $end
$var wire 1 \ ww_sum [0] $end
$var wire 1 ] ww_cout $end
$var wire 1 ^ \~QUARTUS_CREATED_GND~I_combout\ $end
$var wire 1 _ \x[0]~input_o\ $end
$var wire 1 ` \cin~input_o\ $end
$var wire 1 a \y[0]~input_o\ $end
$var wire 1 b \x[1]~input_o\ $end
$var wire 1 c \y[1]~input_o\ $end
$var wire 1 d \x[2]~input_o\ $end
$var wire 1 e \CLA0|sum[2]~0_combout\ $end
$var wire 1 f \y[2]~input_o\ $end
$var wire 1 g \CLA0|sum[2]~1_combout\ $end
$var wire 1 h \y[3]~input_o\ $end
$var wire 1 i \x[3]~input_o\ $end
$var wire 1 j \CLA0|sum[3]~2_combout\ $end
$var wire 1 k \CLA0|sum[2]~3_combout\ $end
$var wire 1 l \CLA0|cout~0_combout\ $end
$var wire 1 m \CLA0|carry~0_combout\ $end
$var wire 1 n \x[4]~input_o\ $end
$var wire 1 o \y[4]~input_o\ $end
$var wire 1 p \y[5]~input_o\ $end
$var wire 1 q \x[5]~input_o\ $end
$var wire 1 r \CLA1|sum[1]~0_combout\ $end
$var wire 1 s \x[6]~input_o\ $end
$var wire 1 t \CLA1|sum[2]~1_combout\ $end
$var wire 1 u \CLA1|sum[2]~2_combout\ $end
$var wire 1 v \y[6]~input_o\ $end
$var wire 1 w \CLA1|sum[2]~3_combout\ $end
$var wire 1 x \y[7]~input_o\ $end
$var wire 1 y \x[7]~input_o\ $end
$var wire 1 z \CLA1|sum[3]~4_combout\ $end
$var wire 1 { \CLA1|cout~0_combout\ $end
$var wire 1 | \CLA1|g\ [3] $end
$var wire 1 } \CLA1|g\ [2] $end
$var wire 1 ~ \CLA1|g\ [1] $end
$var wire 1 !! \CLA1|g\ [0] $end
$var wire 1 "! \CLA1|sum\ [3] $end
$var wire 1 #! \CLA1|sum\ [2] $end
$var wire 1 $! \CLA1|sum\ [1] $end
$var wire 1 %! \CLA1|sum\ [0] $end
$var wire 1 &! \CLA0|sum\ [3] $end
$var wire 1 '! \CLA0|sum\ [2] $end
$var wire 1 (! \CLA0|sum\ [1] $end
$var wire 1 )! \CLA0|sum\ [0] $end
$var wire 1 *! \ALT_INV_y[7]~input_o\ $end
$var wire 1 +! \ALT_INV_x[7]~input_o\ $end
$var wire 1 ,! \ALT_INV_y[6]~input_o\ $end
$var wire 1 -! \ALT_INV_x[6]~input_o\ $end
$var wire 1 .! \ALT_INV_y[5]~input_o\ $end
$var wire 1 /! \ALT_INV_x[5]~input_o\ $end
$var wire 1 0! \ALT_INV_y[4]~input_o\ $end
$var wire 1 1! \ALT_INV_x[4]~input_o\ $end
$var wire 1 2! \ALT_INV_y[3]~input_o\ $end
$var wire 1 3! \ALT_INV_x[3]~input_o\ $end
$var wire 1 4! \ALT_INV_y[2]~input_o\ $end
$var wire 1 5! \ALT_INV_x[2]~input_o\ $end
$var wire 1 6! \ALT_INV_y[1]~input_o\ $end
$var wire 1 7! \ALT_INV_x[1]~input_o\ $end
$var wire 1 8! \ALT_INV_cin~input_o\ $end
$var wire 1 9! \ALT_INV_y[0]~input_o\ $end
$var wire 1 :! \ALT_INV_x[0]~input_o\ $end
$var wire 1 ;! \CLA1|ALT_INV_sum[2]~2_combout\ $end
$var wire 1 <! \CLA1|ALT_INV_sum[2]~1_combout\ $end
$var wire 1 =! \CLA1|ALT_INV_g\ [1] $end
$var wire 1 >! \CLA1|ALT_INV_sum[1]~0_combout\ $end
$var wire 1 ?! \CLA0|ALT_INV_cout~0_combout\ $end
$var wire 1 @! \CLA0|ALT_INV_carry~0_combout\ $end
$var wire 1 A! \CLA0|ALT_INV_sum[2]~3_combout\ $end
$var wire 1 B! \CLA0|ALT_INV_sum[2]~0_combout\ $end
$upscope $end
$upscope $end
$enddefinitions $end
#0
$dumpvars
0!
1"
0;
1<
x=
1>
1?
1@
1A
1B
1C
0T
1]
x^
1_
0`
1a
1b
0c
1d
1e
0f
0g
0h
1i
0j
1k
0l
0m
1n
0o
0p
1q
1r
1s
0t
1u
0v
0w
0x
1y
0z
1{
1*!
0+!
1,!
0-!
1.!
0/!
10!
01!
12!
03!
14!
05!
16!
07!
18!
09!
0:!
0;!
1<!
0>!
1?!
1@!
0A!
0B!
1+
1,
1-
1.
1/
10
11
12
03
04
05
06
07
08
09
1:
1D
1E
1F
1G
1H
1I
1J
1K
0L
0M
0N
0O
0P
0Q
0R
1S
0U
0V
0W
0X
0Y
0Z
0[
0\
x|
x}
0~
x!!
x"!
x#!
0$!
0%!
x&!
x'!
0(!
0)!
1=!
0#
0$
0%
0&
0'
0(
0)
0*
$end
#10000
1!
0:
1T
0S
0a
1`
08!
19!
#20000
0!
02
01
00
0/
0.
0-
0,
0+
0T
0K
0J
0I
0H
0G
0F
0E
0D
0y
0s
0q
0n
0i
0d
0b
0_
0`
18!
1:!
17!
15!
13!
11!
1/!
1-!
1+!
1w
0{
0r
1t
1%!
1$!
0u
1g
1m
0e
0k
1A!
1B!
0@!
1;!
0<!
1>!
0w
0g
0%!
0$!
1Z
1W
1X
0]
1V
1(
1&
1%
1$
0"
0W
0X
0Z
0V
0(
0&
0%
0$
#30000
12
11
10
1/
1:
16
1K
1J
1I
1H
1S
1O
1o
1a
1i
1d
1b
1_
0:!
07!
05!
03!
09!
00!
1%!
1g
1j
0m
1e
1k
0A!
0B!
1@!
0g
0j
0%!
1$!
1Y
1Z
1X
1(
1'
1&
1W
0X
0Y
0Z
0(
0'
0&
1%
#40000
02
01
00
0/
0:
06
19
0K
0J
0I
0H
0S
1R
0O
0o
1c
0a
0i
0d
0b
0_
1:!
17!
15!
13!
19!
06!
10!
1%!
0$!
1g
1m
1(!
0e
0k
1A!
1B!
0@!
0g
0%!
1[
1Z
0W
1X
1)
1(
1&
0%
0X
0Z
0(
0&
#50000
10
1-
17
15
1I
1F
1P
1N
1p
1h
1q
1d
05!
0/!
02!
0.!
0t
1~
1g
1j
0m
1@!
0=!
1<!
1w
1Y
1Z
1(
1'
1V
1$
#60000
00
0-
07
05
09
0I
0F
0R
0P
0N
0p
0h
0c
0q
0d
15!
1/!
16!
12!
1.!
0(!
1t
0~
0g
0j
1m
0@!
1=!
0<!
0w
0Y
0Z
0[
0)
0(
0'
0V
0$
#70000
1+
13
1D
1L
1x
1y
0+!
0*!
1{
1]
1"
#80000
0+
03
0D
0L
0x
0y
1+!
1*!
0{
0]
0"
#160000
10
1I
1d
05!
1g
1Z
1(
#170000
17
1P
1h
02!
1j
0m
1@!
1Y
1'
#180000
07
18
1Q
0P
0h
1f
04!
12!
0g
1m
0@!
0Z
0(
#190000
17
1P
1h
02!
0j
1l
0m
1@!
0?!
1%!
0Y
0'
1X
1&
#200000
07
08
19
1R
0Q
0P
0h
0f
1c
06!
14!
12!
1g
1m
1(!
0l
1?!
0@!
0%!
1[
1Z
1)
1(
0X
0&
#210000
17
1P
1h
02!
1j
0m
1@!
1Y
1'
#220000
07
18
1Q
0P
0h
1f
04!
12!
0g
1m
0@!
0Z
0(
#230000
17
1P
1h
02!
0j
1l
0m
1@!
0?!
1%!
0Y
0'
1X
1&
#240000
07
08
09
1:
1S
0R
0Q
0P
0h
0f
0c
1a
09!
16!
14!
12!
1g
1m
0l
1)!
0(!
1?!
0@!
0%!
0[
1\
1Z
1*
0)
1(
0X
0&
#250000
17
1P
1h
02!
1j
0m
1@!
1Y
1'
#260000
07
18
1Q
0P
0h
1f
04!
12!
0g
1m
0@!
0Z
0(
#270000
17
1P
1h
02!
0j
1l
0m
1@!
0?!
1%!
0Y
0'
1X
1&
#280000
07
08
19
1R
0Q
0P
0h
0f
1c
06!
14!
12!
1g
1m
1(!
0l
1?!
0@!
0%!
1[
1Z
1)
1(
0X
0&
#290000
17
1P
1h
02!
1j
0m
1@!
1Y
1'
#300000
07
18
1Q
0P
0h
1f
04!
12!
0g
1m
0@!
0Z
0(
#310000
17
1P
1h
02!
0j
1l
0m
1@!
0?!
1%!
0Y
0'
1X
1&
#320000
07
08
09
0:
00
11
0S
0R
0Q
0P
1J
0I
0d
1b
0h
0f
0c
0a
19!
16!
14!
12!
07!
15!
1m
0l
0)!
1?!
0@!
0%!
0\
0*
0X
0&
#330000
17
1P
1h
02!
1j
1Y
1'
#340000
07
18
1Q
0P
0h
1f
04!
12!
1g
0j
0Y
1Z
1(
0'
#350000
17
1P
1h
02!
1j
0m
1@!
1Y
1'
#360000
07
08
19
1R
0Q
0P
0h
0f
1c
06!
14!
12!
0g
0j
1m
0(!
1e
0B!
0@!
1g
0[
0Y
0Z
0)
0(
0'
1Z
1(
#370000
17
1P
1h
02!
1j
1Y
1'
#380000
07
18
1Q
0P
0h
1f
04!
12!
0g
0Z
0(
#390000
17
1P
1h
02!
0j
1l
0m
1@!
0?!
1%!
0Y
0'
1X
1&
#400000
07
08
09
1:
1S
0R
0Q
0P
0h
0f
0c
1a
09!
16!
14!
12!
1g
1m
0l
1)!
1(!
0e
1B!
1?!
0@!
0%!
0g
1[
1\
1Z
1*
1)
1(
0Z
0X
0(
0&
#410000
17
1P
1h
02!
1j
1Y
1'
#420000
07
18
1Q
0P
0h
1f
04!
12!
1g
0j
0Y
1Z
1(
0'
#430000
17
1P
1h
02!
1j
0m
1@!
1Y
1'
#440000
07
08
19
1R
0Q
0P
0h
0f
1c
06!
14!
12!
0g
0j
1m
0(!
1e
0B!
0@!
1g
0[
0Y
0Z
0)
0(
0'
1Z
1(
#450000
17
1P
1h
02!
1j
1Y
1'
#460000
07
18
1Q
0P
0h
1f
04!
12!
0g
0Z
0(
#470000
17
1P
1h
02!
0j
1l
0m
1@!
0?!
1%!
0Y
0'
1X
1&
#480000
07
08
09
0:
10
0S
0R
0Q
0P
1I
1d
0h
0f
0c
0a
19!
16!
14!
12!
05!
1j
1m
0l
0)!
1(!
0e
1B!
1?!
0@!
0%!
1g
0j
1[
0\
1Y
0*
1)
1'
0Y
1Z
0X
1(
0'
0&
#490000
17
1P
1h
02!
1j
0m
1@!
1Y
1'
#500000
07
18
1Q
0P
0h
1f
04!
12!
0g
1m
0@!
0Z
0(
#510000
17
1P
1h
02!
0j
1l
0m
1@!
0?!
1%!
0Y
0'
1X
1&
#520000
07
08
19
1R
0Q
0P
0h
0f
1c
06!
14!
12!
1g
1m
0(!
1e
0l
1?!
0B!
0@!
0g
1j
0%!
0[
1Z
0)
1(
0X
1Y
0Z
0(
1'
0&
#530000
17
1P
1h
02!
0j
1l
0m
1@!
0?!
1%!
0Y
0'
1X
1&
#540000
07
18
1Q
0P
0h
1f
04!
12!
1g
1j
0l
1m
0@!
1?!
0%!
1Y
1Z
1(
1'
0X
0&
#550000
17
1P
1h
02!
0j
1l
0m
1@!
0?!
1%!
0Y
0'
1X
1&
#560000
07
08
09
1:
1S
0R
0Q
0P
0h
0f
0c
1a
09!
16!
14!
12!
0g
1j
1m
0l
1)!
1(!
0e
1B!
1?!
0@!
0%!
1g
0j
1[
1\
1Y
0Z
1*
1)
0(
1'
0Y
1Z
0X
1(
0'
0&
#570000
17
1P
1h
02!
1j
0m
1@!
1Y
1'
#580000
07
18
1Q
0P
0h
1f
04!
12!
0g
1m
0@!
0Z
0(
#590000
17
1P
1h
02!
0j
1l
0m
1@!
0?!
1%!
0Y
0'
1X
1&
#600000
07
08
19
1R
0Q
0P
0h
0f
1c
06!
14!
12!
1g
1m
0(!
1e
0l
1?!
0B!
0@!
0g
1j
0%!
0[
1Z
0)
1(
0X
1Y
0Z
0(
1'
0&
#610000
17
1P
1h
02!
0j
1l
0m
1@!
0?!
1%!
0Y
0'
1X
1&
#620000
07
18
1Q
0P
0h
1f
04!
12!
1g
1j
0l
1m
0@!
1?!
0%!
1Y
1Z
1(
1'
0X
0&
#630000
17
1P
1h
02!
0j
1l
0m
1@!
0?!
1%!
0Y
0'
1X
1&
#640000
07
08
09
0:
00
01
12
0S
0R
0Q
0P
1K
0J
0I
0d
0b
1_
0h
0f
0c
0a
19!
16!
14!
12!
0:!
17!
15!
1m
0l
0e
1B!
1?!
0@!
0%!
0g
0Z
0X
0(
0&
#650000
17
1P
1h
02!
1j
1Y
1'
#660000
07
18
1Q
0P
0h
1f
04!
12!
1g
0j
0Y
1Z
1(
0'
#670000
17
1P
1h
02!
1j
0m
1@!
1Y
1'
#680000
07
08
19
1R
0Q
0P
0h
0f
1c
06!
14!
12!
0g
0j
1m
1(!
0@!
1[
0Y
0Z
1)
0(
0'
#690000
17
1P
1h
02!
1j
1Y
1'
#700000
07
18
1Q
0P
0h
1f
04!
12!
1g
0j
0Y
1Z
1(
0'
#710000
17
1P
1h
02!
1j
0m
1@!
1Y
1'
#720000
07
08
09
1:
1S
0R
0Q
0P
0h
0f
0c
1a
09!
16!
14!
12!
0g
0j
1m
0)!
0@!
0\
0Y
0Z
0*
0(
0'
#730000
17
1P
1h
02!
1j
1Y
1'
#740000
07
18
1Q
0P
0h
1f
04!
12!
1g
0j
0Y
1Z
1(
0'
#750000
17
1P
1h
02!
1j
0m
1@!
1Y
1'
#760000
07
08
19
1R
0Q
0P
0h
0f
1c
06!
14!
12!
0g
0j
1m
0(!
1e
1k
0A!
0B!
0@!
1g
0[
0Y
0Z
0)
0(
0'
1Z
1(
#770000
17
1P
1h
02!
1j
1Y
1'
#780000
07
18
1Q
0P
0h
1f
04!
12!
0g
0Z
0(
#790000
17
1P
1h
02!
0j
0m
1@!
1%!
0Y
0'
1X
1&
#800000
07
08
09
0:
10
0S
0R
0Q
0P
1I
1d
0h
0f
0c
0a
19!
16!
14!
12!
05!
1j
1m
1)!
0e
0k
1A!
1B!
0@!
1g
0j
0%!
1\
1Y
1*
1'
0X
0Y
1Z
1(
0'
0&
#810000
17
1P
1h
02!
1j
0m
1@!
1Y
1'
#820000
07
18
1Q
0P
0h
1f
04!
12!
0g
1m
0@!
0Z
0(
#830000
17
1P
1h
02!
0j
1l
0m
1@!
0?!
1%!
0Y
0'
1X
1&
#840000
07
08
19
1R
0Q
0P
0h
0f
1c
06!
14!
12!
1g
1m
1(!
0l
1?!
0@!
0%!
1[
1Z
1)
1(
0X
0&
#850000
17
1P
1h
02!
1j
0m
1@!
1Y
1'
#860000
07
18
1Q
0P
0h
1f
04!
12!
0g
1m
0@!
0Z
0(
#870000
17
1P
1h
02!
0j
1l
0m
1@!
0?!
1%!
0Y
0'
1X
1&
#880000
07
08
09
1:
1S
0R
0Q
0P
0h
0f
0c
1a
09!
16!
14!
12!
1g
1m
0l
0)!
1?!
0@!
0%!
0\
1Z
0*
1(
0X
0&
#890000
17
1P
1h
02!
1j
0m
1@!
1Y
1'
#900000
07
18
1Q
0P
0h
1f
04!
12!
0g
1m
0@!
0Z
0(
#910000
17
1P
1h
02!
0j
1l
0m
1@!
0?!
1%!
0Y
0'
1X
1&
#920000
07
08
19
1R
0Q
0P
0h
0f
1c
06!
14!
12!
1g
1m
0(!
1e
1k
0l
1?!
0A!
0B!
0@!
0g
1j
0%!
0[
1Z
0)
1(
0X
1Y
0Z
0(
1'
0&
#930000
17
1P
1h
02!
0j
0m
1@!
1%!
0Y
0'
1X
1&
#940000
07
18
1Q
0P
0h
1f
04!
12!
1g
1j
1m
0@!
0%!
1Y
1Z
1(
1'
0X
0&
#950000
17
1P
1h
02!
0j
1l
0m
1@!
0?!
1%!
0Y
0'
1X
1&
#960000
07
08
09
0:
00
11
0S
0R
0Q
0P
1J
0I
0d
1b
0h
0f
0c
0a
19!
16!
14!
12!
07!
15!
1m
0l
1)!
1(!
0e
0k
1A!
1B!
1?!
0@!
0g
0%!
1[
1\
1*
1)
0X
0Z
0(
0&
#970000
17
1P
1h
02!
1j
1Y
1'
#980000
07
18
1Q
0P
0h
1f
04!
12!
1g
0j
0Y
1Z
1(
0'
#990000
17
1P
1h
02!
1j
0m
1@!
1Y
1'
#1000000
07
08
19
1R
0Q
0P
0h
0f
1c
06!
14!
12!
0g
0j
1m
0(!
1e
0B!
0@!
1g
0[
0Y
0Z
0)
0(
0'
1Z
1(
#1010000
17
1P
1h
02!
1j
1Y
1'
#1020000
07
18
1Q
0P
0h
1f
04!
12!
0g
0Z
0(
#1030000
17
1P
1h
02!
0j
1l
0m
1@!
0?!
1%!
0Y
0'
1X
1&
#1040000
07
08
09
1:
1S
0R
0Q
0P
0h
0f
0c
1a
09!
16!
14!
12!
1g
1m
0l
0)!
1k
0A!
1?!
0@!
0%!
0\
1Z
0*
1(
0X
0&
#1050000
17
1P
1h
02!
1j
1Y
1'
#1060000
07
18
1Q
0P
0h
1f
04!
12!
0g
0Z
0(
#1070000
17
1P
1h
02!
0j
0m
1@!
1%!
0Y
0'
1X
1&
#1080000
07
08
19
1R
0Q
0P
0h
0f
1c
06!
14!
12!
1g
1m
1(!
0@!
0%!
1[
1Z
1)
1(
0X
0&
#1090000
17
1P
1h
02!
1j
1Y
1'
#1100000
07
18
1Q
0P
0h
1f
04!
12!
0g
0Z
0(
#1110000
17
1P
1h
02!
0j
1l
0m
1@!
0?!
1%!
0Y
0'
1X
1&
#1120000
07
08
09
0:
10
0S
0R
0Q
0P
1I
1d
0h
0f
0c
0a
19!
16!
14!
12!
05!
1j
1m
0l
1)!
0e
0k
1A!
1B!
1?!
0@!
1g
0j
0%!
1\
1Y
1*
1'
0X
0Y
1Z
1(
0'
0&
#1130000
17
1P
1h
02!
1j
0m
1@!
1Y
1'
#1140000
07
18
1Q
0P
0h
1f
04!
12!
0g
1m
0@!
0Z
0(
#1150000
17
1P
1h
02!
0j
1l
0m
1@!
0?!
1%!
0Y
0'
1X
1&
#1160000
07
08
19
1R
0Q
0P
0h
0f
1c
06!
14!
12!
1g
1m
0(!
1e
0l
1?!
0B!
0@!
0g
1j
0%!
0[
1Z
0)
1(
0X
1Y
0Z
0(
1'
0&
#1170000
17
1P
1h
02!
0j
1l
0m
1@!
0?!
1%!
0Y
0'
1X
1&
#1180000
07
18
1Q
0P
0h
1f
04!
12!
1g
1j
0l
1m
0@!
1?!
0%!
1Y
1Z
1(
1'
0X
0&
#1190000
17
1P
1h
02!
0j
1l
0m
1@!
0?!
1%!
0Y
0'
1X
1&
#1200000
07
08
09
1:
1S
0R
0Q
0P
0h
0f
0c
1a
09!
16!
14!
12!
0g
1j
1m
0l
0)!
1k
0A!
1?!
0@!
0%!
0\
1Y
0Z
0*
0(
1'
0X
0&
#1210000
17
1P
1h
02!
0j
0m
1@!
1%!
0Y
0'
1X
1&
#1220000
07
18
1Q
0P
0h
1f
04!
12!
1g
1j
1m
0@!
0%!
1Y
1Z
1(
1'
0X
0&
#1230000
17
1P
1h
02!
0j
1l
0m
1@!
0?!
1%!
0Y
0'
1X
1&
#1240000
07
08
19
1R
0Q
0P
0h
0f
1c
06!
14!
12!
0g
1j
1m
1(!
0l
1?!
0@!
0%!
1[
1Y
0Z
1)
0(
1'
0X
0&
#1250000
17
1P
1h
02!
0j
1l
0m
1@!
0?!
1%!
0Y
0'
1X
1&
#1260000
07
18
1Q
0P
0h
1f
04!
12!
1g
1j
0l
1m
0@!
1?!
0%!
1Y
1Z
1(
1'
0X
0&
#1270000
17
1P
1h
02!
0j
1l
0m
1@!
0?!
1%!
0Y
0'
1X
1&
#1280000
07
08
09
0:
00
01
02
1!
0S
0R
0Q
0P
0K
0J
0I
1T
1`
0d
0b
0_
0h
0f
0c
0a
19!
16!
14!
12!
1:!
17!
15!
08!
1m
0l
1)!
0(!
0e
0k
1A!
1B!
1?!
0@!
0g
0%!
0[
1\
1*
0)
0X
0Z
0(
0&
#1290000
17
1P
1h
02!
1j
1Y
1'
#1300000
07
18
1Q
0P
0h
1f
04!
12!
1g
0j
0Y
1Z
1(
0'
#1310000
17
1P
1h
02!
1j
0m
1@!
1Y
1'
#1320000
07
08
19
1R
0Q
0P
0h
0f
1c
06!
14!
12!
0g
0j
1m
1(!
0@!
1[
0Y
0Z
1)
0(
0'
#1330000
17
1P
1h
02!
1j
1Y
1'
#1340000
07
18
1Q
0P
0h
1f
04!
12!
1g
0j
0Y
1Z
1(
0'
#1350000
17
1P
1h
02!
1j
0m
1@!
1Y
1'
#1360000
07
08
09
1:
1S
0R
0Q
0P
0h
0f
0c
1a
09!
16!
14!
12!
0g
0j
1m
0)!
0@!
0\
0Y
0Z
0*
0(
0'
#1370000
17
1P
1h
02!
1j
1Y
1'
#1380000
07
18
1Q
0P
0h
1f
04!
12!
1g
0j
0Y
1Z
1(
0'
#1390000
17
1P
1h
02!
1j
0m
1@!
1Y
1'
#1400000
07
08
19
1R
0Q
0P
0h
0f
1c
06!
14!
12!
0g
0j
1m
0(!
1e
1k
0A!
0B!
0@!
1g
0[
0Y
0Z
0)
0(
0'
1Z
1(
#1410000
17
1P
1h
02!
1j
1Y
1'
#1420000
07
18
1Q
0P
0h
1f
04!
12!
0g
0Z
0(
#1430000
17
1P
1h
02!
0j
0m
1@!
1%!
0Y
0'
1X
1&
#1440000
07
08
09
0:
10
0S
0R
0Q
0P
1I
1d
0h
0f
0c
0a
19!
16!
14!
12!
05!
1j
1m
1)!
0e
0k
1A!
1B!
0@!
1g
0j
0%!
1\
1Y
1*
1'
0X
0Y
1Z
1(
0'
0&
#1450000
17
1P
1h
02!
1j
0m
1@!
1Y
1'
#1460000
07
18
1Q
0P
0h
1f
04!
12!
0g
1m
0@!
0Z
0(
#1470000
17
1P
1h
02!
0j
1l
0m
1@!
0?!
1%!
0Y
0'
1X
1&
#1480000
07
08
19
1R
0Q
0P
0h
0f
1c
06!
14!
12!
1g
1m
1(!
0l
1?!
0@!
0%!
1[
1Z
1)
1(
0X
0&
#1490000
17
1P
1h
02!
1j
0m
1@!
1Y
1'
#1500000
07
18
1Q
0P
0h
1f
04!
12!
0g
1m
0@!
0Z
0(
#1510000
17
1P
1h
02!
0j
1l
0m
1@!
0?!
1%!
0Y
0'
1X
1&
#1520000
07
08
09
1:
1S
0R
0Q
0P
0h
0f
0c
1a
09!
16!
14!
12!
1g
1m
0l
0)!
1?!
0@!
0%!
0\
1Z
0*
1(
0X
0&
#1530000
17
1P
1h
02!
1j
0m
1@!
1Y
1'
#1540000
07
18
1Q
0P
0h
1f
04!
12!
0g
1m
0@!
0Z
0(
#1550000
17
1P
1h
02!
0j
1l
0m
1@!
0?!
1%!
0Y
0'
1X
1&
#1560000
07
08
19
1R
0Q
0P
0h
0f
1c
06!
14!
12!
1g
1m
0(!
1e
1k
0l
1?!
0A!
0B!
0@!
0g
1j
0%!
0[
1Z
0)
1(
0X
1Y
0Z
0(
1'
0&
#1570000
17
1P
1h
02!
0j
0m
1@!
1%!
0Y
0'
1X
1&
#1580000
07
18
1Q
0P
0h
1f
04!
12!
1g
1j
1m
0@!
0%!
1Y
1Z
1(
1'
0X
0&
#1590000
17
1P
1h
02!
0j
1l
0m
1@!
0?!
1%!
0Y
0'
1X
1&
#1600000
07
08
09
0:
00
11
0S
0R
0Q
0P
1J
0I
0d
1b
0h
0f
0c
0a
19!
16!
14!
12!
07!
15!
1m
0l
1)!
1(!
0e
0k
1A!
1B!
1?!
0@!
0g
0%!
1[
1\
1*
1)
0X
0Z
0(
0&
#1610000
17
1P
1h
02!
1j
1Y
1'
#1620000
07
18
1Q
0P
0h
1f
04!
12!
1g
0j
0Y
1Z
1(
0'
#1630000
17
1P
1h
02!
1j
0m
1@!
1Y
1'
#1640000
07
08
19
1R
0Q
0P
0h
0f
1c
06!
14!
12!
0g
0j
1m
0(!
1e
0B!
0@!
1g
0[
0Y
0Z
0)
0(
0'
1Z
1(
#1650000
17
1P
1h
02!
1j
1Y
1'
#1660000
07
18
1Q
0P
0h
1f
04!
12!
0g
0Z
0(
#1670000
17
1P
1h
02!
0j
1l
0m
1@!
0?!
1%!
0Y
0'
1X
1&
#1680000
07
08
09
1:
1S
0R
0Q
0P
0h
0f
0c
1a
09!
16!
14!
12!
1g
1m
0l
0)!
1k
0A!
1?!
0@!
0%!
0\
1Z
0*
1(
0X
0&
#1690000
17
1P
1h
02!
1j
1Y
1'
#1700000
07
18
1Q
0P
0h
1f
04!
12!
0g
0Z
0(
#1710000
17
1P
1h
02!
0j
0m
1@!
1%!
0Y
0'
1X
1&
#1720000
07
08
19
1R
0Q
0P
0h
0f
1c
06!
14!
12!
1g
1m
1(!
0@!
0%!
1[
1Z
1)
1(
0X
0&
#1730000
17
1P
1h
02!
1j
1Y
1'
#1740000
07
18
1Q
0P
0h
1f
04!
12!
0g
0Z
0(
#1750000
17
1P
1h
02!
0j
1l
0m
1@!
0?!
1%!
0Y
0'
1X
1&
#1760000
07
08
09
0:
10
0S
0R
0Q
0P
1I
1d
0h
0f
0c
0a
19!
16!
14!
12!
05!
1j
1m
0l
1)!
0e
0k
1A!
1B!
1?!
0@!
1g
0j
0%!
1\
1Y
1*
1'
0X
0Y
1Z
1(
0'
0&
#1770000
17
1P
1h
02!
1j
0m
1@!
1Y
1'
#1780000
07
18
1Q
0P
0h
1f
04!
12!
0g
1m
0@!
0Z
0(
#1790000
17
1P
1h
02!
0j
1l
0m
1@!
0?!
1%!
0Y
0'
1X
1&
#1800000
07
08
19
1R
0Q
0P
0h
0f
1c
06!
14!
12!
1g
1m
0(!
1e
0l
1?!
0B!
0@!
0g
1j
0%!
0[
1Z
0)
1(
0X
1Y
0Z
0(
1'
0&
#1810000
17
1P
1h
02!
0j
1l
0m
1@!
0?!
1%!
0Y
0'
1X
1&
#1820000
07
18
1Q
0P
0h
1f
04!
12!
1g
1j
0l
1m
0@!
1?!
0%!
1Y
1Z
1(
1'
0X
0&
#1830000
17
1P
1h
02!
0j
1l
0m
1@!
0?!
1%!
0Y
0'
1X
1&
#1840000
07
08
09
1:
1S
0R
0Q
0P
0h
0f
0c
1a
09!
16!
14!
12!
0g
1j
1m
0l
0)!
1k
0A!
1?!
0@!
0%!
0\
1Y
0Z
0*
0(
1'
0X
0&
#1850000
17
1P
1h
02!
0j
0m
1@!
1%!
0Y
0'
1X
1&
#1860000
07
18
1Q
0P
0h
1f
04!
12!
1g
1j
1m
0@!
0%!
1Y
1Z
1(
1'
0X
0&
#1870000
17
1P
1h
02!
0j
1l
0m
1@!
0?!
1%!
0Y
0'
1X
1&
#1880000
07
08
19
1R
0Q
0P
0h
0f
1c
06!
14!
12!
0g
1j
1m
1(!
0l
1?!
0@!
0%!
1[
1Y
0Z
1)
0(
1'
0X
0&
#1890000
17
1P
1h
02!
0j
1l
0m
1@!
0?!
1%!
0Y
0'
1X
1&
#1900000
07
18
1Q
0P
0h
1f
04!
12!
1g
1j
0l
1m
0@!
1?!
0%!
1Y
1Z
1(
1'
0X
0&
#1910000
17
1P
1h
02!
0j
1l
0m
1@!
0?!
1%!
0Y
0'
1X
1&
#1920000
07
08
09
0:
00
01
12
0S
0R
0Q
0P
1K
0J
0I
0d
0b
1_
0h
0f
0c
0a
19!
16!
14!
12!
0:!
17!
15!
1m
0l
0e
0k
1A!
1B!
1?!
0@!
0g
0%!
0X
0Z
0(
0&
#1930000
17
1P
1h
02!
1j
1Y
1'
#1940000
07
18
1Q
0P
0h
1f
04!
12!
1g
0j
0Y
1Z
1(
0'
#1950000
17
1P
1h
02!
1j
0m
1@!
1Y
1'
#1960000
07
08
19
1R
0Q
0P
0h
0f
1c
06!
14!
12!
0g
0j
1m
0(!
1e
1k
0A!
0B!
0@!
1g
0[
0Y
0Z
0)
0(
0'
1Z
1(
#1970000
17
1P
1h
02!
1j
1Y
1'
#1980000
07
18
1Q
0P
0h
1f
04!
12!
0g
0Z
0(
#1990000
17
1P
1h
02!
0j
0m
1@!
1%!
0Y
0'
1X
1&
